111550175_lab4/waveform.vcd
$version Generated by VerilatedVcd $end
$timescale 1s $end

 $scope module TOP $end
  $var wire  1 &! clk $end
  $var wire 32 (! r[0] [31:0] $end
  $var wire 32 2! r[10] [31:0] $end
  $var wire 32 3! r[11] [31:0] $end
  $var wire 32 4! r[12] [31:0] $end
  $var wire 32 5! r[13] [31:0] $end
  $var wire 32 6! r[14] [31:0] $end
  $var wire 32 7! r[15] [31:0] $end
  $var wire 32 8! r[16] [31:0] $end
  $var wire 32 9! r[17] [31:0] $end
  $var wire 32 :! r[18] [31:0] $end
  $var wire 32 ;! r[19] [31:0] $end
  $var wire 32 )! r[1] [31:0] $end
  $var wire 32 <! r[20] [31:0] $end
  $var wire 32 =! r[21] [31:0] $end
  $var wire 32 >! r[22] [31:0] $end
  $var wire 32 ?! r[23] [31:0] $end
  $var wire 32 @! r[24] [31:0] $end
  $var wire 32 A! r[25] [31:0] $end
  $var wire 32 B! r[26] [31:0] $end
  $var wire 32 C! r[27] [31:0] $end
  $var wire 32 D! r[28] [31:0] $end
  $var wire 32 E! r[29] [31:0] $end
  $var wire 32 *! r[2] [31:0] $end
  $var wire 32 F! r[30] [31:0] $end
  $var wire 32 G! r[31] [31:0] $end
  $var wire 32 +! r[3] [31:0] $end
  $var wire 32 ,! r[4] [31:0] $end
  $var wire 32 -! r[5] [31:0] $end
  $var wire 32 .! r[6] [31:0] $end
  $var wire 32 /! r[7] [31:0] $end
  $var wire 32 0! r[8] [31:0] $end
  $var wire 32 1! r[9] [31:0] $end
  $var wire  1 '! start $end
  $scope module PipelineCPU $end
   $var wire  3 v ALU_Op [2:0] $end
   $var wire  4 # ALU_ctl [3:0] $end
   $var wire 32 J! ALU_res [31:0] $end
   $var wire  1 z ALU_src $end
   $var wire 32 M! MALU_o [31:0] $end
   $var wire 32 Q! Mdm_2_o [31:0] $end
   $var wire 32 P! Mdm_o [31:0] $end
   $var wire  1 ~ branc $end
   $var wire  1 &! clk $end
   $var wire  1 . ex_o_10 $end
   $var wire  1 #! ex_o_11 $end
   $var wire 32 g ex_o_13 [31:0] $end
   $var wire 32 "! ex_o_3 [31:0] $end
   $var wire 32 - ex_o_4 [31:0] $end
   $var wire  5 4 ex_o_5 [4:0] $end
   $var wire  1 5 ex_o_6 $end
   $var wire  1 n ex_o_7 $end
   $var wire  1 h ex_o_8 $end
   $var wire 32 % id_o_1 [31:0] $end
   $var wire  1 e id_o_10 $end
   $var wire  1 f id_o_11 $end
   $var wire  1 + id_o_12 $end
   $var wire  1 !! id_o_13 $end
   $var wire  1 , id_o_14 $end
   $var wire  1 3 id_o_15 $end
   $var wire  3 ' id_o_16 [2:0] $end
   $var wire 32 d id_o_17 [31:0] $end
   $var wire  5 ( id_o_18 [4:0] $end
   $var wire  5 ) id_o_19 [4:0] $end
   $var wire 32 ; id_o_2 [31:0] $end
   $var wire 32 < id_o_3 [31:0] $end
   $var wire 32 0 id_o_4 [31:0] $end
   $var wire  1 * id_o_5 $end
   $var wire  3 & id_o_6 [2:0] $end
   $var wire  5 1 id_o_7 [4:0] $end
   $var wire  1 2 id_o_8 $end
   $var wire  1 m id_o_9 $end
   $var wire 32 $ if_o_1 [31:0] $end
   $var wire 32 : if_o_2 [31:0] $end
   $var wire 32 c if_o_3 [31:0] $end
   $var wire 32 K! imm_out [31:0] $end
   $var wire 32 8 inst_out [31:0] $end
   $var wire  1 | jal_con $end
   $var wire  1 } jalr_con $end
   $var wire 32 o mem_o_1 [31:0] $end
   $var wire 32 p mem_o_2 [31:0] $end
   $var wire  5 6 mem_o_3 [4:0] $end
   $var wire  1 7 mem_o_4 $end
   $var wire  1 q mem_o_5 $end
   $var wire  1 j mem_o_6 $end
   $var wire 32 i mem_o_7 [31:0] $end
   $var wire  1 w mem_read $end
   $var wire  1 x mem_to_reg $end
   $var wire  1 y mem_write $end
   $var wire  1 r mfu_o_1 $end
   $var wire  1 s mfu_o_2 $end
   $var wire  1 t mfu_o_3 $end
   $var wire  1 u mfu_o_4 $end
   $var wire  1 $! mhdu_o_1 $end
   $var wire  1 %! mhdu_o_2 $end
   $var wire  1 ]! mhdu_o_4 $end
   $var wire 32 S! mjalr2_o [31:0] $end
   $var wire 32 R! mjalr_o [31:0] $end
   $var wire 32 T! mux_pc_output [31:0] $end
   $var wire 32 V! mux_writedata_output [31:0] $end
   $var wire 32 L! pc_input [31:0] $end
   $var wire 32 9 pc_output [31:0] $end
   $var wire 32 (! r[0] [31:0] $end
   $var wire 32 2! r[10] [31:0] $end
   $var wire 32 3! r[11] [31:0] $end
   $var wire 32 4! r[12] [31:0] $end
   $var wire 32 5! r[13] [31:0] $end
   $var wire 32 6! r[14] [31:0] $end
   $var wire 32 7! r[15] [31:0] $end
   $var wire 32 8! r[16] [31:0] $end
   $var wire 32 9! r[17] [31:0] $end
   $var wire 32 :! r[18] [31:0] $end
   $var wire 32 ;! r[19] [31:0] $end
   $var wire 32 )! r[1] [31:0] $end
   $var wire 32 <! r[20] [31:0] $end
   $var wire 32 =! r[21] [31:0] $end
   $var wire 32 >! r[22] [31:0] $end
   $var wire 32 ?! r[23] [31:0] $end
   $var wire 32 @! r[24] [31:0] $end
   $var wire 32 A! r[25] [31:0] $end
   $var wire 32 B! r[26] [31:0] $end
   $var wire 32 C! r[27] [31:0] $end
   $var wire 32 D! r[28] [31:0] $end
   $var wire 32 E! r[29] [31:0] $end
   $var wire 32 *! r[2] [31:0] $end
   $var wire 32 F! r[30] [31:0] $end
   $var wire 32 G! r[31] [31:0] $end
   $var wire 32 +! r[3] [31:0] $end
   $var wire 32 ,! r[4] [31:0] $end
   $var wire 32 -! r[5] [31:0] $end
   $var wire 32 .! r[6] [31:0] $end
   $var wire 32 /! r[7] [31:0] $end
   $var wire 32 0! r[8] [31:0] $end
   $var wire 32 1! r[9] [31:0] $end
   $var wire 32 N! read_data [31:0] $end
   $var wire 32 H! read_data1 [31:0] $end
   $var wire 32 I! read_data2 [31:0] $end
   $var wire  1 { reg_write $end
   $var wire 32 Y! rs1_1_output [31:0] $end
   $var wire 32 Z! rs1_2_output [31:0] $end
   $var wire 32 [! rs2_1_output [31:0] $end
   $var wire 32 \! rs2_2_output [31:0] $end
   $var wire 32 < s0_sel [31:0] $end
   $var wire 32 / shift_left_one [31:0] $end
   $var wire  1 '! start $end
   $var wire 32 k sum_1 [31:0] $end
   $var wire 32 k sum_1_async [31:0] $end
   $var wire 32 l sum_2 [31:0] $end
   $var wire 32 U! sum_jalr [31:0] $end
   $var wire  1 X! w1 $end
   $var wire 32 O! write_data [31:0] $end
   $var wire 32 O! write_data_async [31:0] $end
   $var wire  1 W! zero_o $end
   $scope module m_ALU $end
    $var wire 32 Z! A [31:0] $end
    $var wire 32 J! ALUOut [31:0] $end
    $var wire  4 # ALUctl [3:0] $end
    $var wire 32 M! B [31:0] $end
    $var wire  1 W! zero $end
   $upscope $end
   $scope module m_ALUCtrl $end
    $var wire  4 # ALUCtl [3:0] $end
    $var wire  3 ' ALUOp [2:0] $end
    $var wire  3 & funct3 [2:0] $end
    $var wire  1 * funct7 $end
   $upscope $end
   $scope module m_Adder_1 $end
    $var wire 32 9 a [31:0] $end
    $var wire 32 ^! b [31:0] $end
    $var wire 32 k sum [31:0] $end
   $upscope $end
   $scope module m_Adder_2 $end
    $var wire 32 % a [31:0] $end
    $var wire 32 / b [31:0] $end
    $var wire 32 l sum [31:0] $end
   $upscope $end
   $scope module m_Adder_jalr $end
    $var wire 32 S! a [31:0] $end
    $var wire 32 0 b [31:0] $end
    $var wire 32 U! sum [31:0] $end
   $upscope $end
   $scope module m_Control $end
    $var wire  3 v ALUOp [2:0] $end
    $var wire  1 z ALUSrc $end
    $var wire  1 ~ branch $end
    $var wire  1 | jalcon $end
    $var wire  1 } jalrcon $end
    $var wire  1 w memRead $end
    $var wire  1 y memWrite $end
    $var wire  1 x memtoReg $end
    $var wire  7 = opcode [6:0] $end
    $var wire  1 { regWrite $end
   $upscope $end
   $scope module m_DataMemory $end
    $var wire 32 "! address [31:0] $end
    $var wire  1 &! clk $end
    $var wire  1 #! memRead $end
    $var wire  1 . memWrite $end
    $var wire 32 N! readData [31:0] $end
    $var wire  1 '! rst $end
    $var wire 32 - writeData [31:0] $end
   $upscope $end
   $scope module m_ImmGen $end
    $var wire 32 K! imm [31:0] $end
    $var wire 32 : inst [31:0] $end
    $var wire  7 = opcode [6:0] $end
   $upscope $end
   $scope module m_InstMem $end
    $var wire 32 8 inst [31:0] $end
    $var wire 32 9 readAddr [31:0] $end
   $upscope $end
   $scope module m_Mux_ALU $end
    $var wire 32 M! out [31:0] $end
    $var wire 32 \! s0 [31:0] $end
    $var wire 32 0 s1 [31:0] $end
    $var wire  1 3 sel $end
    $var wire 32 _! size [31:0] $end
   $upscope $end
   $scope module m_Mux_PC $end
    $var wire 32 T! out [31:0] $end
    $var wire 32 k s0 [31:0] $end
    $var wire 32 l s1 [31:0] $end
    $var wire  1 X! sel $end
    $var wire 32 _! size [31:0] $end
   $upscope $end
   $scope module m_Mux_PC2 $end
    $var wire 32 L! out [31:0] $end
    $var wire 32 T! s0 [31:0] $end
    $var wire 32 U! s1 [31:0] $end
    $var wire  1 f sel $end
    $var wire 32 _! size [31:0] $end
   $upscope $end
   $scope module m_Mux_WriteData $end
    $var wire 32 V! out [31:0] $end
    $var wire 32 p s0 [31:0] $end
    $var wire 32 o s1 [31:0] $end
    $var wire  1 q sel $end
    $var wire 32 _! size [31:0] $end
   $upscope $end
   $scope module m_Mux_WriteData_jal $end
    $var wire 32 O! out [31:0] $end
    $var wire 32 V! s0 [31:0] $end
    $var wire 32 i s1 [31:0] $end
    $var wire  1 j sel $end
    $var wire 32 _! size [31:0] $end
   $upscope $end
   $scope module m_Mux_dm $end
    $var wire 32 P! out [31:0] $end
    $var wire 32 < s0 [31:0] $end
    $var wire 32 "! s1 [31:0] $end
    $var wire  1 t sel $end
    $var wire 32 _! size [31:0] $end
   $upscope $end
   $scope module m_Mux_dm_2 $end
    $var wire 32 Q! out [31:0] $end
    $var wire 32 P! s0 [31:0] $end
    $var wire 32 O! s1 [31:0] $end
    $var wire  1 u sel $end
    $var wire 32 _! size [31:0] $end
   $upscope $end
   $scope module m_Mux_jalr $end
    $var wire 32 R! out [31:0] $end
    $var wire 32 ; s0 [31:0] $end
    $var wire 32 "! s1 [31:0] $end
    $var wire  1 r sel $end
    $var wire 32 _! size [31:0] $end
   $upscope $end
   $scope module m_Mux_jalr_2 $end
    $var wire 32 S! out [31:0] $end
    $var wire 32 R! s0 [31:0] $end
    $var wire 32 O! s1 [31:0] $end
    $var wire  1 s sel $end
    $var wire 32 _! size [31:0] $end
   $upscope $end
   $scope module m_Mux_rs1_1 $end
    $var wire 32 Y! out [31:0] $end
    $var wire 32 ; s0 [31:0] $end
    $var wire 32 "! s1 [31:0] $end
    $var wire  1 r sel $end
    $var wire 32 _! size [31:0] $end
   $upscope $end
   $scope module m_Mux_rs1_2 $end
    $var wire 32 Z! out [31:0] $end
    $var wire 32 Y! s0 [31:0] $end
    $var wire 32 O! s1 [31:0] $end
    $var wire  1 s sel $end
    $var wire 32 _! size [31:0] $end
   $upscope $end
   $scope module m_Mux_rs2_1 $end
    $var wire 32 [! out [31:0] $end
    $var wire 32 < s0 [31:0] $end
    $var wire 32 "! s1 [31:0] $end
    $var wire  1 t sel $end
    $var wire 32 _! size [31:0] $end
   $upscope $end
   $scope module m_Mux_rs2_2 $end
    $var wire 32 \! out [31:0] $end
    $var wire 32 [! s0 [31:0] $end
    $var wire 32 O! s1 [31:0] $end
    $var wire  1 u sel $end
    $var wire 32 _! size [31:0] $end
   $upscope $end
   $scope module m_PC $end
    $var wire  1 &! clk $end
    $var wire 32 L! pc_i [31:0] $end
    $var wire  1 $! pc_i_2 $end
    $var wire 32 9 pc_o [31:0] $end
    $var wire  1 '! rst $end
   $upscope $end
   $scope module m_Register $end
    $var wire  1 &! clk $end
    $var wire 32 H! readData1 [31:0] $end
    $var wire 32 I! readData2 [31:0] $end
    $var wire  5 > readReg1 [4:0] $end
    $var wire  5 ? readReg2 [4:0] $end
    $var wire  1 7 regWrite $end
    $var wire 32 C regs[0] [31:0] $end
    $var wire 32 M regs[10] [31:0] $end
    $var wire 32 N regs[11] [31:0] $end
    $var wire 32 O regs[12] [31:0] $end
    $var wire 32 P regs[13] [31:0] $end
    $var wire 32 Q regs[14] [31:0] $end
    $var wire 32 R regs[15] [31:0] $end
    $var wire 32 S regs[16] [31:0] $end
    $var wire 32 T regs[17] [31:0] $end
    $var wire 32 U regs[18] [31:0] $end
    $var wire 32 V regs[19] [31:0] $end
    $var wire 32 D regs[1] [31:0] $end
    $var wire 32 W regs[20] [31:0] $end
    $var wire 32 X regs[21] [31:0] $end
    $var wire 32 Y regs[22] [31:0] $end
    $var wire 32 Z regs[23] [31:0] $end
    $var wire 32 [ regs[24] [31:0] $end
    $var wire 32 \ regs[25] [31:0] $end
    $var wire 32 ] regs[26] [31:0] $end
    $var wire 32 ^ regs[27] [31:0] $end
    $var wire 32 _ regs[28] [31:0] $end
    $var wire 32 ` regs[29] [31:0] $end
    $var wire 32 E regs[2] [31:0] $end
    $var wire 32 a regs[30] [31:0] $end
    $var wire 32 b regs[31] [31:0] $end
    $var wire 32 F regs[3] [31:0] $end
    $var wire 32 G regs[4] [31:0] $end
    $var wire 32 H regs[5] [31:0] $end
    $var wire 32 I regs[6] [31:0] $end
    $var wire 32 J regs[7] [31:0] $end
    $var wire 32 K regs[8] [31:0] $end
    $var wire 32 L regs[9] [31:0] $end
    $var wire  1 '! rst $end
    $var wire 32 O! writeData [31:0] $end
    $var wire  5 6 writeReg [4:0] $end
   $upscope $end
   $scope module m_ShiftLeftOne $end
    $var wire 32 0 i [31:0] $end
    $var wire 32 / o [31:0] $end
   $upscope $end
   $scope module m_exmem $end
    $var wire  1 &! clk $end
    $var wire  1 + p_reg_i_ex_10 $end
    $var wire  1 !! p_reg_i_ex_11 $end
    $var wire 32 d p_reg_i_ex_13 [31:0] $end
    $var wire 32 J! p_reg_i_ex_3 [31:0] $end
    $var wire 32 Q! p_reg_i_ex_4 [31:0] $end
    $var wire  5 1 p_reg_i_ex_5 [4:0] $end
    $var wire  1 2 p_reg_i_ex_6 $end
    $var wire  1 m p_reg_i_ex_7 $end
    $var wire  1 e p_reg_i_ex_8 $end
    $var wire  1 . p_reg_o_ex_10 $end
    $var wire  1 #! p_reg_o_ex_11 $end
    $var wire 32 g p_reg_o_ex_13 [31:0] $end
    $var wire 32 "! p_reg_o_ex_3 [31:0] $end
    $var wire 32 - p_reg_o_ex_4 [31:0] $end
    $var wire  5 4 p_reg_o_ex_5 [4:0] $end
    $var wire  1 5 p_reg_o_ex_6 $end
    $var wire  1 n p_reg_o_ex_7 $end
    $var wire  1 h p_reg_o_ex_8 $end
    $var wire  1 '! rst $end
   $upscope $end
   $scope module m_fu $end
    $var wire  5 4 fu_i_1 [4:0] $end
    $var wire  5 6 fu_i_2 [4:0] $end
    $var wire  5 ( fu_i_3 [4:0] $end
    $var wire  5 ) fu_i_4 [4:0] $end
    $var wire  1 q fu_i_5 $end
    $var wire  1 7 fu_i_6 $end
    $var wire  1 5 fu_i_7 $end
    $var wire  1 n fu_i_8 $end
    $var wire  1 r fu_o_1 $end
    $var wire  1 s fu_o_2 $end
    $var wire  1 t fu_o_3 $end
    $var wire  1 u fu_o_4 $end
   $upscope $end
   $scope module m_hdu $end
    $var wire  1 !! hdu_i_1 $end
    $var wire  5 1 hdu_i_2 [4:0] $end
    $var wire  5 > hdu_i_3 [4:0] $end
    $var wire  5 ? hdu_i_4 [4:0] $end
    $var wire  1 X! hdu_i_5 $end
    $var wire  1 $! hdu_o_1 $end
    $var wire  1 %! hdu_o_2 $end
    $var wire  1 ]! hdu_o_4 $end
   $upscope $end
   $scope module m_idex $end
    $var wire  1 &! clk $end
    $var wire 32 $ p_reg_i_id_1 [31:0] $end
    $var wire  1 | p_reg_i_id_10 $end
    $var wire  1 } p_reg_i_id_11 $end
    $var wire  1 y p_reg_i_id_12 $end
    $var wire  1 w p_reg_i_id_13 $end
    $var wire  1 ~ p_reg_i_id_14 $end
    $var wire  1 z p_reg_i_id_15 $end
    $var wire  3 v p_reg_i_id_16 [2:0] $end
    $var wire 32 c p_reg_i_id_17 [31:0] $end
    $var wire  5 > p_reg_i_id_18 [4:0] $end
    $var wire  5 ? p_reg_i_id_19 [4:0] $end
    $var wire 32 H! p_reg_i_id_2 [31:0] $end
    $var wire  1 ]! p_reg_i_id_20 $end
    $var wire  1 %! p_reg_i_id_21 $end
    $var wire 32 I! p_reg_i_id_3 [31:0] $end
    $var wire 32 K! p_reg_i_id_4 [31:0] $end
    $var wire  1 @ p_reg_i_id_5 $end
    $var wire  3 A p_reg_i_id_6 [2:0] $end
    $var wire  5 B p_reg_i_id_7 [4:0] $end
    $var wire  1 { p_reg_i_id_8 $end
    $var wire  1 x p_reg_i_id_9 $end
    $var wire 32 % p_reg_o_id_1 [31:0] $end
    $var wire  1 e p_reg_o_id_10 $end
    $var wire  1 f p_reg_o_id_11 $end
    $var wire  1 + p_reg_o_id_12 $end
    $var wire  1 !! p_reg_o_id_13 $end
    $var wire  1 , p_reg_o_id_14 $end
    $var wire  1 3 p_reg_o_id_15 $end
    $var wire  3 ' p_reg_o_id_16 [2:0] $end
    $var wire 32 d p_reg_o_id_17 [31:0] $end
    $var wire  5 ( p_reg_o_id_18 [4:0] $end
    $var wire  5 ) p_reg_o_id_19 [4:0] $end
    $var wire 32 ; p_reg_o_id_2 [31:0] $end
    $var wire 32 < p_reg_o_id_3 [31:0] $end
    $var wire 32 0 p_reg_o_id_4 [31:0] $end
    $var wire  1 * p_reg_o_id_5 $end
    $var wire  3 & p_reg_o_id_6 [2:0] $end
    $var wire  5 1 p_reg_o_id_7 [4:0] $end
    $var wire  1 2 p_reg_o_id_8 $end
    $var wire  1 m p_reg_o_id_9 $end
    $var wire  1 '! rst $end
   $upscope $end
   $scope module m_ifid $end
    $var wire  1 &! clk $end
    $var wire 32 9 p_reg_i_if_1 [31:0] $end
    $var wire 32 8 p_reg_i_if_2 [31:0] $end
    $var wire 32 k p_reg_i_if_3 [31:0] $end
    $var wire  1 ]! p_reg_i_if_4 $end
    $var wire  1 %! p_reg_i_if_5 $end
    $var wire 32 $ p_reg_o_if_1 [31:0] $end
    $var wire 32 : p_reg_o_if_2 [31:0] $end
    $var wire 32 c p_reg_o_if_3 [31:0] $end
    $var wire  1 '! rst $end
   $upscope $end
   $scope module m_memwb $end
    $var wire  1 &! clk $end
    $var wire 32 N! p_reg_i_mem_1 [31:0] $end
    $var wire 32 "! p_reg_i_mem_2 [31:0] $end
    $var wire  5 4 p_reg_i_mem_3 [4:0] $end
    $var wire  1 5 p_reg_i_mem_4 $end
    $var wire  1 n p_reg_i_mem_5 $end
    $var wire  1 h p_reg_i_mem_6 $end
    $var wire 32 g p_reg_i_mem_7 [31:0] $end
    $var wire 32 o p_reg_o_mem_1 [31:0] $end
    $var wire 32 p p_reg_o_mem_2 [31:0] $end
    $var wire  5 6 p_reg_o_mem_3 [4:0] $end
    $var wire  1 7 p_reg_o_mem_4 $end
    $var wire  1 q p_reg_o_mem_5 $end
    $var wire  1 j p_reg_o_mem_6 $end
    $var wire 32 i p_reg_o_mem_7 [31:0] $end
    $var wire  1 '! rst $end
   $upscope $end
  $upscope $end
 $upscope $end
$enddefinitions $end


#0
b0010 #
b00000000000000000000000000000000 $
b00000000000000000000000000000000 %
b000 &
b000 '
b00000 (
b00000 )
0*
0+
0,
b00000000000000000000000000000000 -
0.
b00000000000000000000000000000000 /
b00000000000000000000000000000000 0
b00000 1
02
03
b00000 4
05
b00000 6
07
b00000000010000000000011000010011 8
b00000000000000000000000000000000 9
b00000000000000000000000000000000 :
b00000000000000000000000000000000 ;
b00000000000000000000000000000000 <
b0000000 =
b00000 >
b00000 ?
0@
b000 A
b00000 B
b00000000000000000000000000000000 C
b00000000000000000000000000000000 D
b00000000000000000000000000000000 E
b00000000000000000000000000000000 F
b00000000000000000000000000000000 G
b00000000000000000000000000000000 H
b00000000000000000000000000000000 I
b00000000000000000000000000000000 J
b00000000000000000000000000000000 K
b00000000000000000000000000000000 L
b00000000000000000000000000000000 M
b00000000000000000000000000000000 N
b00000000000000000000000000000000 O
b00000000000000000000000000000000 P
b00000000000000000000000000000000 Q
b00000000000000000000000000000000 R
b00000000000000000000000000000000 S
b00000000000000000000000000000000 T
b00000000000000000000000000000000 U
b00000000000000000000000000000000 V
b00000000000000000000000000000000 W
b00000000000000000000000000000000 X
b00000000000000000000000000000000 Y
b00000000000000000000000000000000 Z
b00000000000000000000000000000000 [
b00000000000000000000000000000000 \
b00000000000000000000000000000000 ]
b00000000000000000000000000000000 ^
b00000000000000000000000000000000 _
b00000000000000000000000000000000 `
b00000000000000000000000000000000 a
b00000000000000000000000000000000 b
b00000000000000000000000000000000 c
b00000000000000000000000000000000 d
0e
0f
b00000000000000000000000000000000 g
0h
b00000000000000000000000000000000 i
0j
b00000000000000000000000000000100 k
b00000000000000000000000000000000 l
0m
0n
b00000000000000000000000000000000 o
b00000000000000000000000000000000 p
0q
0r
0s
0t
0u
b001 v
0w
0x
0y
0z
0{
0|
0}
0~
0!!
b00000000000000000000000000000000 "!
0#!
0$!
0%!
0&!
1'!
b00000000000000000000000000000000 (!
b00000000000000000000000000000000 )!
b00000000000000000000000000000000 *!
b00000000000000000000000000000000 +!
b00000000000000000000000000000000 ,!
b00000000000000000000000000000000 -!
b00000000000000000000000000000000 .!
b00000000000000000000000000000000 /!
b00000000000000000000000000000000 0!
b00000000000000000000000000000000 1!
b00000000000000000000000000000000 2!
b00000000000000000000000000000000 3!
b00000000000000000000000000000000 4!
b00000000000000000000000000000000 5!
b00000000000000000000000000000000 6!
b00000000000000000000000000000000 7!
b00000000000000000000000000000000 8!
b00000000000000000000000000000000 9!
b00000000000000000000000000000000 :!
b00000000000000000000000000000000 ;!
b00000000000000000000000000000000 <!
b00000000000000000000000000000000 =!
b00000000000000000000000000000000 >!
b00000000000000000000000000000000 ?!
b00000000000000000000000000000000 @!
b00000000000000000000000000000000 A!
b00000000000000000000000000000000 B!
b00000000000000000000000000000000 C!
b00000000000000000000000000000000 D!
b00000000000000000000000000000000 E!
b00000000000000000000000000000000 F!
b00000000000000000000000000000000 G!
b00000000000000000000000000000000 H!
b00000000000000000000000000000000 I!
b00000000000000000000000000000000 J!
b00000000000000000000000000000000 K!
b00000000000000000000000000000100 L!
b00000000000000000000000000000000 M!
b00000000000000000000000000000000 N!
b00000000000000000000000000000000 O!
b00000000000000000000000000000000 P!
b00000000000000000000000000000000 Q!
b00000000000000000000000000000000 R!
b00000000000000000000000000000000 S!
b00000000000000000000000000000100 T!
b00000000000000000000000000000000 U!
b00000000000000000000000000000000 V!
0W!
0X!
b00000000000000000000000000000000 Y!
b00000000000000000000000000000000 Z!
b00000000000000000000000000000000 [!
b00000000000000000000000000000000 \!
0]!
b00000000000000000000000000000100 ^!
b00000000000000000000000000100000 _!
#1
b00000000000000000000000010000000 E
1&!
0'!
b00000000000000000000000010000000 *!
#2
0&!
1'!
#3
b0110 #
b001 '
b00000000110000000000000011101111 8
b00000000000000000000000000000100 9
b00000000010000000000011000010011 :
b0010011 =
b00100 ?
b01100 B
b00000000000000000000000000000100 c
b00000000000000000000000000001000 k
b011 v
1z
1{
1&!
b00000000000000000000000000000100 K!
b00000000000000000000000000001000 L!
b00000000000000000000000000001000 T!
1W!
#4
0&!
#5
b0010 #
b00000000000000000000000000000100 $
b011 '
b00100 )
b00000000000000000000000000001000 /
b00000000000000000000000000000100 0
b01100 1
12
13
b00000000010000000000000011101111 8
b00000000000000000000000000001000 9
b00000000110000000000000011101111 :
b1101111 =
b01100 ?
b00001 B
b00000000000000000000000000001000 c
b00000000000000000000000000000100 d
b00000000000000000000000000001100 k
b00000000000000000000000000001000 l
b100 v
0z
1|
1~
1&!
b00000000000000000000000000000100 J!
b00000000000000000000000000000110 K!
b00000000000000000000000000001100 L!
b00000000000000000000000000000100 M!
b00000000000000000000000000001100 T!
b00000000000000000000000000000100 U!
0W!
#6
0&!
#7
b1000 #
b00000000000000000000000000001000 $
b00000000000000000000000000000100 %
b100 '
b01100 )
1,
b00000000000000000000000000001100 /
b00000000000000000000000000000110 0
b00001 1
03
b01100 4
15
b00000000000000000000000001101111 8
b00000000000000000000000000001100 9
b00000000010000000000000011101111 :
b00100 ?
b00000000000000000000000000001100 c
b00000000000000000000000000001000 d
1e
b00000000000000000000000000000100 g
b00000000000000000000000000010000 k
b00000000000000000000000000010000 l
1t
b00000000000000000000000000000100 "!
1&!
b11111111111111111111111111111100 J!
b00000000000000000000000000000010 K!
b00000000000000000000000000010000 L!
b00000000000000000000000000000100 P!
b00000000000000000000000000000100 Q!
b00000000000000000000000000010000 T!
b00000000000000000000000000000110 U!
1W!
1X!
b00000000000000000000000000000100 [!
b00000000000000000000000000000100 \!
1]!
#8
0&!
#9
b0010 #
b00000000000000000000000000000000 $
b00000000000000000000000000000000 %
b000 '
b00000 )
0,
b00000000000000000000000000000100 -
b00000000000000000000000000000000 /
b00000000000000000000000000000000 0
b00000 1
02
b00001 4
b01100 6
17
b11111111010000010000000100010011 8
b00000000000000000000000000010000 9
b00000000000000000000000000000000 :
b0000000 =
b00000 ?
b00000 B
b00000000000000000000000000000000 c
b00000000000000000000000000000000 d
0e
b00000000000000000000000000001000 g
1h
b00000000000000000000000000000100 i
b00000000000000000000000000010100 k
b00000000000000000000000000000000 l
b00000000000000000000000000000100 p
0t
b001 v
0{
0|
0~
b11111111111111111111111111111100 "!
1&!
b00000000000000000000000000000000 J!
b00000000000000000000000000000000 K!
b00000000000000000000000000010100 L!
b00000000000000000000000000000000 M!
b00000000000000000000000000000100 O!
b00000000000000000000000000000000 P!
b00000000000000000000000000000000 Q!
b00000000000000000000000000010100 T!
b00000000000000000000000000000000 U!
b00000000000000000000000000000100 V!
0W!
0X!
b00000000000000000000000000000000 [!
b00000000000000000000000000000000 \!
0]!
#10
b00000000000000000000000000000100 O
0&!
b00000000000000000000000000000100 4!
#11
b0110 #
b00000000000000000000000000010000 $
b001 '
b00000000000000000000000000000000 -
b00000 4
05
b00001 6
b00000000000100010010010000100011 8
b00000000000000000000000000010100 9
b11111111010000010000000100010011 :
b0010011 =
b00010 >
b10100 ?
1@
b00010 B
b00000000000000000000000000010100 c
b00000000000000000000000000000000 g
0h
b00000000000000000000000000001000 i
1j
b00000000000000000000000000011000 k
b11111111111111111111111111111100 p
b011 v
1z
1{
b00000000000000000000000000000000 "!
1&!
b00000000000000000000000010000000 H!
b11111111111111111111111111110100 K!
b00000000000000000000000000011000 L!
b00000000000000000000000000001000 O!
b00000000000000000000000000011000 T!
b11111111111111111111111111111100 V!
1W!
#12
b00000000000000000000000000001000 D
0&!
b00000000000000000000000000001000 )!
#13
b0010 #
b00000000000000000000000000010100 $
b00000000000000000000000000010000 %
b011 '
b00010 (
b10100 )
1*
b11111111111111111111111111101000 /
b11111111111111111111111111110100 0
b00010 1
12
13
b00000 6
07
b00000000100000010010001000100011 8
b00000000000000000000000000011000 9
b00000000000100010010010000100011 :
b00000000000000000000000010000000 ;
b0100011 =
b00001 ?
0@
b010 A
b01000 B
b00000000000000000000000000011000 c
b00000000000000000000000000010100 d
b00000000000000000000000000000000 i
0j
b00000000000000000000000000011100 k
b11111111111111111111111111111000 l
b00000000000000000000000000000000 p
b000 v
1y
0{
1&!
b00000000000000000000000000001000 I!
b00000000000000000000000001110100 J!
b00000000000000000000000000001000 K!
b00000000000000000000000000011100 L!
b11111111111111111111111111110100 M!
b00000000000000000000000000000000 O!
b00000000000000000000000010000000 R!
b00000000000000000000000010000000 S!
b00000000000000000000000000011100 T!
b00000000000000000000000001110100 U!
b00000000000000000000000000000000 V!
0W!
b00000000000000000000000010000000 Y!
b00000000000000000000000010000000 Z!
#14
0&!
#15
b00000000000000000000000000011000 $
b00000000000000000000000000010100 %
b010 &
b000 '
b00001 )
0*
1+
b00000000000000000000000000010000 /
b00000000000000000000000000001000 0
b01000 1
02
b00010 4
15
b00000000000000000000010100010011 8
b00000000000000000000000000011100 9
b00000000100000010010001000100011 :
b00000000000000000000000000001000 <
b01000 ?
b00100 B
b00000000000000000000000000011100 c
b00000000000000000000000000011000 d
b00000000000000000000000000010100 g
b00000000000000000000000000100000 k
b00000000000000000000000000100100 l
1r
b00000000000000000000000001110100 "!
1&!
b00000000000000000000000000000000 I!
b00000000000000000000000001111100 J!
b00000000000000000000000000000100 K!
b00000000000000000000000000100000 L!
b00000000000000000000000000001000 M!
b00000000000000000000000000001000 P!
b00000000000000000000000000001000 Q!
b00000000000000000000000001110100 R!
b00000000000000000000000001110100 S!
b00000000000000000000000000100000 T!
b00000000000000000000000001111100 U!
b00000000000000000000000001110100 Y!
b00000000000000000000000001110100 Z!
b00000000000000000000000000001000 [!
b00000000000000000000000000001000 \!
#16
0&!
