111550175_lab3/waveform.vcd
$version Generated by VerilatedVcd $end
$timescale 1s $end

 $scope module TOP $end
  $var wire  1 } clk $end
  $var wire 32 !! r[0] [31:0] $end
  $var wire 32 +! r[10] [31:0] $end
  $var wire 32 ,! r[11] [31:0] $end
  $var wire 32 -! r[12] [31:0] $end
  $var wire 32 .! r[13] [31:0] $end
  $var wire 32 /! r[14] [31:0] $end
  $var wire 32 0! r[15] [31:0] $end
  $var wire 32 1! r[16] [31:0] $end
  $var wire 32 2! r[17] [31:0] $end
  $var wire 32 3! r[18] [31:0] $end
  $var wire 32 4! r[19] [31:0] $end
  $var wire 32 "! r[1] [31:0] $end
  $var wire 32 5! r[20] [31:0] $end
  $var wire 32 6! r[21] [31:0] $end
  $var wire 32 7! r[22] [31:0] $end
  $var wire 32 8! r[23] [31:0] $end
  $var wire 32 9! r[24] [31:0] $end
  $var wire 32 :! r[25] [31:0] $end
  $var wire 32 ;! r[26] [31:0] $end
  $var wire 32 <! r[27] [31:0] $end
  $var wire 32 =! r[28] [31:0] $end
  $var wire 32 >! r[29] [31:0] $end
  $var wire 32 #! r[2] [31:0] $end
  $var wire 32 ?! r[30] [31:0] $end
  $var wire 32 @! r[31] [31:0] $end
  $var wire 32 $! r[3] [31:0] $end
  $var wire 32 %! r[4] [31:0] $end
  $var wire 32 &! r[5] [31:0] $end
  $var wire 32 '! r[6] [31:0] $end
  $var wire 32 (! r[7] [31:0] $end
  $var wire 32 )! r[8] [31:0] $end
  $var wire 32 *! r[9] [31:0] $end
  $var wire  1 ~ start $end
  $scope module SingleCycleCPU $end
   $var wire  3 o ALU_Op [2:0] $end
   $var wire  4 # ALU_ctl [3:0] $end
   $var wire 32 C! ALU_res [31:0] $end
   $var wire  1 s ALU_src $end
   $var wire 32 G! MALU_o [31:0] $end
   $var wire  1 x branc $end
   $var wire  1 } clk $end
   $var wire 32 z ex_o_1 [31:0] $end
   $var wire  1 . ex_o_10 $end
   $var wire  1 | ex_o_11 $end
   $var wire  1 / ex_o_12 $end
   $var wire  1 - ex_o_2 $end
   $var wire 32 { ex_o_3 [31:0] $end
   $var wire 32 , ex_o_4 [31:0] $end
   $var wire  5 6 ex_o_5 [4:0] $end
   $var wire  1 7 ex_o_6 $end
   $var wire  1 i ex_o_7 $end
   $var wire  1 ^ ex_o_8 $end
   $var wire  1 j ex_o_9 $end
   $var wire 32 % id_o_1 [31:0] $end
   $var wire  1 ] id_o_10 $end
   $var wire  1 h id_o_11 $end
   $var wire  1 * id_o_12 $end
   $var wire  1 y id_o_13 $end
   $var wire  1 + id_o_14 $end
   $var wire  1 5 id_o_15 $end
   $var wire  3 ( id_o_16 [2:0] $end
   $var wire 32 & id_o_2 [31:0] $end
   $var wire 32 1 id_o_3 [31:0] $end
   $var wire 32 2 id_o_4 [31:0] $end
   $var wire  1 ) id_o_5 $end
   $var wire  3 ' id_o_6 [2:0] $end
   $var wire  5 3 id_o_7 [4:0] $end
   $var wire  1 4 id_o_8 $end
   $var wire  1 g id_o_9 $end
   $var wire 32 $ if_o_1 [31:0] $end
   $var wire 32 \ if_o_2 [31:0] $end
   $var wire 32 D! imm_out [31:0] $end
   $var wire 32 Z inst_out [31:0] $end
   $var wire  1 u jal_con $end
   $var wire  1 v jalr_con $end
   $var wire 32 k mem_o_1 [31:0] $end
   $var wire 32 l mem_o_2 [31:0] $end
   $var wire  5 8 mem_o_3 [4:0] $end
   $var wire  1 9 mem_o_4 $end
   $var wire  1 m mem_o_5 $end
   $var wire  1 _ mem_o_6 $end
   $var wire  1 p mem_read $end
   $var wire  1 q mem_to_reg $end
   $var wire  1 r mem_write $end
   $var wire 32 J! mux_pc_output [31:0] $end
   $var wire 32 K! mux_writedata_output [31:0] $end
   $var wire 32 E! pc_input [31:0] $end
   $var wire 32 [ pc_output [31:0] $end
   $var wire 32 !! r[0] [31:0] $end
   $var wire 32 +! r[10] [31:0] $end
   $var wire 32 ,! r[11] [31:0] $end
   $var wire 32 -! r[12] [31:0] $end
   $var wire 32 .! r[13] [31:0] $end
   $var wire 32 /! r[14] [31:0] $end
   $var wire 32 0! r[15] [31:0] $end
   $var wire 32 1! r[16] [31:0] $end
   $var wire 32 2! r[17] [31:0] $end
   $var wire 32 3! r[18] [31:0] $end
   $var wire 32 4! r[19] [31:0] $end
   $var wire 32 "! r[1] [31:0] $end
   $var wire 32 5! r[20] [31:0] $end
   $var wire 32 6! r[21] [31:0] $end
   $var wire 32 7! r[22] [31:0] $end
   $var wire 32 8! r[23] [31:0] $end
   $var wire 32 9! r[24] [31:0] $end
   $var wire 32 :! r[25] [31:0] $end
   $var wire 32 ;! r[26] [31:0] $end
   $var wire 32 <! r[27] [31:0] $end
   $var wire 32 =! r[28] [31:0] $end
   $var wire 32 >! r[29] [31:0] $end
   $var wire 32 #! r[2] [31:0] $end
   $var wire 32 ?! r[30] [31:0] $end
   $var wire 32 @! r[31] [31:0] $end
   $var wire 32 $! r[3] [31:0] $end
   $var wire 32 %! r[4] [31:0] $end
   $var wire 32 &! r[5] [31:0] $end
   $var wire 32 '! r[6] [31:0] $end
   $var wire 32 (! r[7] [31:0] $end
   $var wire 32 )! r[8] [31:0] $end
   $var wire 32 *! r[9] [31:0] $end
   $var wire 32 H! read_data [31:0] $end
   $var wire 32 A! read_data1 [31:0] $end
   $var wire 32 B! read_data2 [31:0] $end
   $var wire  1 t reg_write $end
   $var wire 32 1 s0_sel [31:0] $end
   $var wire 32 0 shift_left_one [31:0] $end
   $var wire  1 ~ start $end
   $var wire 32 n sum_1 [31:0] $end
   $var wire 32 F! sum_2 [31:0] $end
   $var wire 32 f sum_jalr [31:0] $end
   $var wire  1 w w1 $end
   $var wire 32 I! write_data [31:0] $end
   $var wire  1 L! zero_o $end
   $scope module m_ALU $end
    $var wire 32 & A [31:0] $end
    $var wire 32 C! ALUOut [31:0] $end
    $var wire  4 # ALUctl [3:0] $end
    $var wire 32 G! B [31:0] $end
    $var wire  1 L! zero $end
   $upscope $end
   $scope module m_ALUCtrl $end
    $var wire  4 # ALUCtl [3:0] $end
    $var wire  3 ( ALUOp [2:0] $end
    $var wire  3 ' funct3 [2:0] $end
    $var wire  1 ) funct7 $end
   $upscope $end
   $scope module m_Adder_1 $end
    $var wire 32 [ a [31:0] $end
    $var wire 32 M! b [31:0] $end
    $var wire 32 n sum [31:0] $end
   $upscope $end
   $scope module m_Adder_2 $end
    $var wire 32 % a [31:0] $end
    $var wire 32 0 b [31:0] $end
    $var wire 32 F! sum [31:0] $end
   $upscope $end
   $scope module m_Adder_jalr $end
    $var wire 32 & a [31:0] $end
    $var wire 32 2 b [31:0] $end
    $var wire 32 f sum [31:0] $end
   $upscope $end
   $scope module m_Control $end
    $var wire  3 o ALUOp [2:0] $end
    $var wire  1 s ALUSrc $end
    $var wire  1 x branch $end
    $var wire  1 u jalcon $end
    $var wire  1 v jalrcon $end
    $var wire  1 p memRead $end
    $var wire  1 r memWrite $end
    $var wire  1 q memtoReg $end
    $var wire  7 ` opcode [6:0] $end
    $var wire  1 t regWrite $end
   $upscope $end
   $scope module m_DataMemory $end
    $var wire 32 { address [31:0] $end
    $var wire  1 } clk $end
    $var wire  1 | memRead $end
    $var wire  1 . memWrite $end
    $var wire 32 H! readData [31:0] $end
    $var wire  1 ~ rst $end
    $var wire 32 , writeData [31:0] $end
   $upscope $end
   $scope module m_ImmGen $end
    $var wire 32 D! imm [31:0] $end
    $var wire 32 \ inst [31:0] $end
    $var wire  7 ` opcode [6:0] $end
   $upscope $end
   $scope module m_InstMem $end
    $var wire 32 Z inst [31:0] $end
    $var wire 32 [ readAddr [31:0] $end
   $upscope $end
   $scope module m_Mux_ALU $end
    $var wire 32 G! out [31:0] $end
    $var wire 32 1 s0 [31:0] $end
    $var wire 32 2 s1 [31:0] $end
    $var wire  1 5 sel $end
    $var wire 32 N! size [31:0] $end
   $upscope $end
   $scope module m_Mux_PC $end
    $var wire 32 J! out [31:0] $end
    $var wire 32 n s0 [31:0] $end
    $var wire 32 z s1 [31:0] $end
    $var wire  1 w sel $end
    $var wire 32 N! size [31:0] $end
   $upscope $end
   $scope module m_Mux_PC2 $end
    $var wire 32 E! out [31:0] $end
    $var wire 32 J! s0 [31:0] $end
    $var wire 32 f s1 [31:0] $end
    $var wire  1 j sel $end
    $var wire 32 N! size [31:0] $end
   $upscope $end
   $scope module m_Mux_WriteData $end
    $var wire 32 K! out [31:0] $end
    $var wire 32 l s0 [31:0] $end
    $var wire 32 k s1 [31:0] $end
    $var wire  1 m sel $end
    $var wire 32 N! size [31:0] $end
   $upscope $end
   $scope module m_Mux_WriteData_jal $end
    $var wire 32 I! out [31:0] $end
    $var wire 32 K! s0 [31:0] $end
    $var wire 32 n s1 [31:0] $end
    $var wire  1 _ sel $end
    $var wire 32 N! size [31:0] $end
   $upscope $end
   $scope module m_PC $end
    $var wire  1 } clk $end
    $var wire 32 E! pc_i [31:0] $end
    $var wire 32 [ pc_o [31:0] $end
    $var wire  1 ~ rst $end
   $upscope $end
   $scope module m_Register $end
    $var wire  1 } clk $end
    $var wire 32 A! readData1 [31:0] $end
    $var wire 32 B! readData2 [31:0] $end
    $var wire  5 a readReg1 [4:0] $end
    $var wire  5 b readReg2 [4:0] $end
    $var wire  1 9 regWrite $end
    $var wire 32 : regs[0] [31:0] $end
    $var wire 32 D regs[10] [31:0] $end
    $var wire 32 E regs[11] [31:0] $end
    $var wire 32 F regs[12] [31:0] $end
    $var wire 32 G regs[13] [31:0] $end
    $var wire 32 H regs[14] [31:0] $end
    $var wire 32 I regs[15] [31:0] $end
    $var wire 32 J regs[16] [31:0] $end
    $var wire 32 K regs[17] [31:0] $end
    $var wire 32 L regs[18] [31:0] $end
    $var wire 32 M regs[19] [31:0] $end
    $var wire 32 ; regs[1] [31:0] $end
    $var wire 32 N regs[20] [31:0] $end
    $var wire 32 O regs[21] [31:0] $end
    $var wire 32 P regs[22] [31:0] $end
    $var wire 32 Q regs[23] [31:0] $end
    $var wire 32 R regs[24] [31:0] $end
    $var wire 32 S regs[25] [31:0] $end
    $var wire 32 T regs[26] [31:0] $end
    $var wire 32 U regs[27] [31:0] $end
    $var wire 32 V regs[28] [31:0] $end
    $var wire 32 W regs[29] [31:0] $end
    $var wire 32 < regs[2] [31:0] $end
    $var wire 32 X regs[30] [31:0] $end
    $var wire 32 Y regs[31] [31:0] $end
    $var wire 32 = regs[3] [31:0] $end
    $var wire 32 > regs[4] [31:0] $end
    $var wire 32 ? regs[5] [31:0] $end
    $var wire 32 @ regs[6] [31:0] $end
    $var wire 32 A regs[7] [31:0] $end
    $var wire 32 B regs[8] [31:0] $end
    $var wire 32 C regs[9] [31:0] $end
    $var wire  1 ~ rst $end
    $var wire 32 I! writeData [31:0] $end
    $var wire  5 8 writeReg [4:0] $end
   $upscope $end
   $scope module m_ShiftLeftOne $end
    $var wire 32 2 i [31:0] $end
    $var wire 32 0 o [31:0] $end
   $upscope $end
   $scope module m_exmem $end
    $var wire  1 } clk $end
    $var wire 32 F! p_reg_i_ex_1 [31:0] $end
    $var wire  1 * p_reg_i_ex_10 $end
    $var wire  1 y p_reg_i_ex_11 $end
    $var wire  1 + p_reg_i_ex_12 $end
    $var wire  1 L! p_reg_i_ex_2 $end
    $var wire 32 C! p_reg_i_ex_3 [31:0] $end
    $var wire 32 1 p_reg_i_ex_4 [31:0] $end
    $var wire  5 3 p_reg_i_ex_5 [4:0] $end
    $var wire  1 4 p_reg_i_ex_6 $end
    $var wire  1 g p_reg_i_ex_7 $end
    $var wire  1 ] p_reg_i_ex_8 $end
    $var wire  1 h p_reg_i_ex_9 $end
    $var wire 32 z p_reg_o_ex_1 [31:0] $end
    $var wire  1 . p_reg_o_ex_10 $end
    $var wire  1 | p_reg_o_ex_11 $end
    $var wire  1 / p_reg_o_ex_12 $end
    $var wire  1 - p_reg_o_ex_2 $end
    $var wire 32 { p_reg_o_ex_3 [31:0] $end
    $var wire 32 , p_reg_o_ex_4 [31:0] $end
    $var wire  5 6 p_reg_o_ex_5 [4:0] $end
    $var wire  1 7 p_reg_o_ex_6 $end
    $var wire  1 i p_reg_o_ex_7 $end
    $var wire  1 ^ p_reg_o_ex_8 $end
    $var wire  1 j p_reg_o_ex_9 $end
    $var wire  1 ~ rst $end
   $upscope $end
   $scope module m_idex $end
    $var wire  1 } clk $end
    $var wire 32 $ p_reg_i_id_1 [31:0] $end
    $var wire  1 u p_reg_i_id_10 $end
    $var wire  1 v p_reg_i_id_11 $end
    $var wire  1 r p_reg_i_id_12 $end
    $var wire  1 p p_reg_i_id_13 $end
    $var wire  1 x p_reg_i_id_14 $end
    $var wire  1 s p_reg_i_id_15 $end
    $var wire  3 o p_reg_i_id_16 [2:0] $end
    $var wire 32 A! p_reg_i_id_2 [31:0] $end
    $var wire 32 B! p_reg_i_id_3 [31:0] $end
    $var wire 32 D! p_reg_i_id_4 [31:0] $end
    $var wire  1 c p_reg_i_id_5 $end
    $var wire  3 d p_reg_i_id_6 [2:0] $end
    $var wire  5 e p_reg_i_id_7 [4:0] $end
    $var wire  1 t p_reg_i_id_8 $end
    $var wire  1 q p_reg_i_id_9 $end
    $var wire 32 % p_reg_o_id_1 [31:0] $end
    $var wire  1 ] p_reg_o_id_10 $end
    $var wire  1 h p_reg_o_id_11 $end
    $var wire  1 * p_reg_o_id_12 $end
    $var wire  1 y p_reg_o_id_13 $end
    $var wire  1 + p_reg_o_id_14 $end
    $var wire  1 5 p_reg_o_id_15 $end
    $var wire  3 ( p_reg_o_id_16 [2:0] $end
    $var wire 32 & p_reg_o_id_2 [31:0] $end
    $var wire 32 1 p_reg_o_id_3 [31:0] $end
    $var wire 32 2 p_reg_o_id_4 [31:0] $end
    $var wire  1 ) p_reg_o_id_5 $end
    $var wire  3 ' p_reg_o_id_6 [2:0] $end
    $var wire  5 3 p_reg_o_id_7 [4:0] $end
    $var wire  1 4 p_reg_o_id_8 $end
    $var wire  1 g p_reg_o_id_9 $end
    $var wire  1 ~ rst $end
   $upscope $end
   $scope module m_ifid $end
    $var wire  1 } clk $end
    $var wire 32 [ p_reg_i_if_1 [31:0] $end
    $var wire 32 Z p_reg_i_if_2 [31:0] $end
    $var wire 32 $ p_reg_o_if_1 [31:0] $end
    $var wire 32 \ p_reg_o_if_2 [31:0] $end
    $var wire  1 ~ rst $end
   $upscope $end
   $scope module m_memwb $end
    $var wire  1 } clk $end
    $var wire 32 H! p_reg_i_mem_1 [31:0] $end
    $var wire 32 { p_reg_i_mem_2 [31:0] $end
    $var wire  5 6 p_reg_i_mem_3 [4:0] $end
    $var wire  1 7 p_reg_i_mem_4 $end
    $var wire  1 i p_reg_i_mem_5 $end
    $var wire  1 ^ p_reg_i_mem_6 $end
    $var wire 32 k p_reg_o_mem_1 [31:0] $end
    $var wire 32 l p_reg_o_mem_2 [31:0] $end
    $var wire  5 8 p_reg_o_mem_3 [4:0] $end
    $var wire  1 9 p_reg_o_mem_4 $end
    $var wire  1 m p_reg_o_mem_5 $end
    $var wire  1 _ p_reg_o_mem_6 $end
    $var wire  1 ~ rst $end
   $upscope $end
  $upscope $end
 $upscope $end
$enddefinitions $end


#0
b0010 #
b00000000000000000000000000000000 $
b00000000000000000000000000000000 %
b00000000000000000000000000000000 &
b000 '
b000 (
0)
0*
0+
b00000000000000000000000000000000 ,
0-
0.
0/
b00000000000000000000000000000000 0
b00000000000000000000000000000000 1
b00000000000000000000000000000000 2
b00000 3
04
05
b00000 6
07
b00000 8
09
b00000000000000000000000000000000 :
b00000000000000000000000000000000 ;
b00000000000000000000000000000000 <
b00000000000000000000000000000000 =
b00000000000000000000000000000000 >
b00000000000000000000000000000000 ?
b00000000000000000000000000000000 @
b00000000000000000000000000000000 A
b00000000000000000000000000000000 B
b00000000000000000000000000000000 C
b00000000000000000000000000000000 D
b00000000000000000000000000000000 E
b00000000000000000000000000000000 F
b00000000000000000000000000000000 G
b00000000000000000000000000000000 H
b00000000000000000000000000000000 I
b00000000000000000000000000000000 J
b00000000000000000000000000000000 K
b00000000000000000000000000000000 L
b00000000000000000000000000000000 M
b00000000000000000000000000000000 N
b00000000000000000000000000000000 O
b00000000000000000000000000000000 P
b00000000000000000000000000000000 Q
b00000000000000000000000000000000 R
b00000000000000000000000000000000 S
b00000000000000000000000000000000 T
b00000000000000000000000000000000 U
b00000000000000000000000000000000 V
b00000000000000000000000000000000 W
b00000000000000000000000000000000 X
b00000000000000000000000000000000 Y
b00000000101000000000000010010011 Z
b00000000000000000000000000000000 [
b00000000000000000000000000000000 \
0]
0^
0_
b0000000 `
b00000 a
b00000 b
0c
b000 d
b00000 e
b00000000000000000000000000000000 f
0g
0h
0i
0j
b00000000000000000000000000000000 k
b00000000000000000000000000000000 l
0m
b00000000000000000000000000000100 n
b001 o
0p
0q
0r
0s
0t
0u
0v
0w
0x
0y
b00000000000000000000000000000000 z
b00000000000000000000000000000000 {
0|
0}
1~
b00000000000000000000000000000000 !!
b00000000000000000000000000000000 "!
b00000000000000000000000000000000 #!
b00000000000000000000000000000000 $!
b00000000000000000000000000000000 %!
b00000000000000000000000000000000 &!
b00000000000000000000000000000000 '!
b00000000000000000000000000000000 (!
b00000000000000000000000000000000 )!
b00000000000000000000000000000000 *!
b00000000000000000000000000000000 +!
b00000000000000000000000000000000 ,!
b00000000000000000000000000000000 -!
b00000000000000000000000000000000 .!
b00000000000000000000000000000000 /!
b00000000000000000000000000000000 0!
b00000000000000000000000000000000 1!
b00000000000000000000000000000000 2!
b00000000000000000000000000000000 3!
b00000000000000000000000000000000 4!
b00000000000000000000000000000000 5!
b00000000000000000000000000000000 6!
b00000000000000000000000000000000 7!
b00000000000000000000000000000000 8!
b00000000000000000000000000000000 9!
b00000000000000000000000000000000 :!
b00000000000000000000000000000000 ;!
b00000000000000000000000000000000 <!
b00000000000000000000000000000000 =!
b00000000000000000000000000000000 >!
b00000000000000000000000000000000 ?!
b00000000000000000000000000000000 @!
b00000000000000000000000000000000 A!
b00000000000000000000000000000000 B!
b00000000000000000000000000000000 C!
b00000000000000000000000000000000 D!
b00000000000000000000000000000100 E!
b00000000000000000000000000000000 F!
b00000000000000000000000000000000 G!
b00000000000000000000000000000000 H!
b00000000000000000000000000000000 I!
b00000000000000000000000000000100 J!
b00000000000000000000000000000000 K!
0L!
b00000000000000000000000000000100 M!
b00000000000000000000000000100000 N!
#1
b00000000000000000000000010000000 <
1}
0~
b00000000000000000000000010000000 #!
#2
0}
1~
#3
b0110 #
b001 (
b00000001010000000000000100010011 Z
b00000000000000000000000000000100 [
b00000000101000000000000010010011 \
b0010011 `
b01010 b
b00001 e
b00000000000000000000000000001000 n
b011 o
1s
1t
1}
b00000000000000000000000000001010 D!
b00000000000000000000000000001000 E!
b00000000000000000000000000001000 J!
1L!
#4
0}
#5
b0010 #
b00000000000000000000000000000100 $
b011 (
1-
b00000000000000000000000000010100 0
b00000000000000000000000000001010 2
b00001 3
14
15
b00000000000000000111000000110011 Z
b00000000000000000000000000001000 [
b00000001010000000000000100010011 \
b10100 b
b00010 e
b00000000000000000000000000001010 f
b00000000000000000000000000001100 n
1}
b00000000000000000000000000001010 C!
b00000000000000000000000000010100 D!
b00000000000000000000000000001100 E!
b00000000000000000000000000010100 F!
b00000000000000000000000000001010 G!
b00000000000000000000000000001100 J!
0L!
#6
0}
#7
b00000000000000000000000000001000 $
b00000000000000000000000000000100 %
0-
b00000000000000000000000000101000 0
b00000000000000000000000000010100 2
b00010 3
b00001 6
17
b00000000000000000000000000001100 [
b00000000000000000111000000110011 \
b0110011 `
b00000 b
b111 d
b00000 e
b00000000000000000000000000010100 f
b00000000000000000000000000010000 n
b010 o
0s
b00000000000000000000000000010100 z
b00000000000000000000000000001010 {
1}
b00000000000000000000000000010100 C!
b00000000000000000000000000000000 D!
b00000000000000000000000000010000 E!
b00000000000000000000000000101100 F!
b00000000000000000000000000010100 G!
b00000000000000000000000000010000 J!
#8
0}
#9
b0000 #
b00000000000000000000000000001100 $
b00000000000000000000000000001000 %
b111 '
b010 (
b00000000000000000000000000000000 0
b00000000000000000000000000000000 2
b00000 3
05
b00010 6
b00001 8
19
b00000000000000000000000000010000 [
b00000000000000000000000000000000 f
b00000000000000000000000000001010 l
b00000000000000000000000000010100 n
b00000000000000000000000000101100 z
b00000000000000000000000000010100 {
1}
b00000000000000000000000000000000 C!
b00000000000000000000000000010100 E!
b00000000000000000000000000001000 F!
b00000000000000000000000000000000 G!
b00000000000000000000000000001010 I!
b00000000000000000000000000010100 J!
b00000000000000000000000000001010 K!
#10
b00000000000000000000000000001010 ;
0}
b00000000000000000000000000001010 "!
#11
b00000000000000000000000000010000 $
b00000000000000000000000000001100 %
b00000 6
b00010 8
b00000000000000000000000000010100 [
b00000000000000000000000000010100 l
b00000000000000000000000000011000 n
b00000000000000000000000000001000 z
b00000000000000000000000000000000 {
1}
b00000000000000000000000000011000 E!
b00000000000000000000000000001100 F!
b00000000000000000000000000010100 I!
b00000000000000000000000000011000 J!
b00000000000000000000000000010100 K!
#12
b00000000000000000000000000010100 <
0}
b00000000000000000000000000010100 #!
#13
b00000000000000000000000000010100 $
b00000000000000000000000000010000 %
b00000 8
b00000000000000000000000000011000 [
b00000000000000000000000000000000 l
b00000000000000000000000000011100 n
b00000000000000000000000000001100 z
1}
b00000000000000000000000000011100 E!
b00000000000000000000000000010000 F!
b00000000000000000000000000000000 I!
b00000000000000000000000000011100 J!
b00000000000000000000000000000000 K!
#14
0}
#15
b00000000000000000000000000011000 $
b00000000000000000000000000010100 %
b00000000000100010000000110110011 Z
b00000000000000000000000000011100 [
b00000000000000000000000000100000 n
b00000000000000000000000000010000 z
1}
b00000000000000000000000000100000 E!
b00000000000000000000000000010100 F!
b00000000000000000000000000100000 J!
#16
0}
#17
b00000000000000000000000000011100 $
b00000000000000000000000000011000 %
b01000000000100010000001000110011 Z
b00000000000000000000000000100000 [
b00000000000100010000000110110011 \
b00010 a
b00001 b
b000 d
b00011 e
b00000000000000000000000000100100 n
b00000000000000000000000000010100 z
1}
b00000000000000000000000000010100 A!
b00000000000000000000000000001010 B!
b00000000000000000000000000100100 E!
b00000000000000000000000000011000 F!
b00000000000000000000000000100100 J!
#18
0}
#19
b0010 #
b00000000000000000000000000100000 $
b00000000000000000000000000011100 %
b00000000000000000000000000010100 &
b000 '
b00000000000000000000000000001010 1
b00011 3
b00000000000000000000000000000000 Z
b00000000000000000000000000100100 [
b01000000000100010000001000110011 \
1c
b00100 e
b00000000000000000000000000010100 f
b00000000000000000000000000101000 n
b00000000000000000000000000011000 z
1}
b00000000000000000000000000011110 C!
b00000000000000000000000000101000 E!
b00000000000000000000000000011100 F!
b00000000000000000000000000001010 G!
b00000000000000000000000000101000 J!
#20
0}
#21
b0110 #
b00000000000000000000000000100100 $
b00000000000000000000000000100000 %
1)
b00000000000000000000000000001010 ,
b00100 3
b00011 6
b00000000000000000000000000101000 [
b00000000000000000000000000000000 \
b0000000 `
b00000 a
b00000 b
0c
b00000 e
b00000000000000000000000000101100 n
b001 o
0t
b00000000000000000000000000011100 z
b00000000000000000000000000011110 {
1}
b00000000000000000000000000000000 A!
b00000000000000000000000000000000 B!
b00000000000000000000000000001010 C!
b00000000000000000000000000101100 E!
b00000000000000000000000000100000 F!
b00000000000000000000000000101100 J!
#22
0}
#23
b00000000000000000000000000101000 $
b00000000000000000000000000100100 %
b00000000000000000000000000000000 &
b001 (
0)
b00000000000000000000000000000000 1
b00000 3
04
b00100 6
b00011 8
b00000000000000000000000000101100 [
b00000000000000000000000000000000 f
b00000000000000000000000000011110 l
b00000000000000000000000000110000 n
b00000000000000000000000000100000 z
b00000000000000000000000000001010 {
1}
b00000000000000000000000000000000 C!
b00000000000000000000000000110000 E!
b00000000000000000000000000100100 F!
b00000000000000000000000000000000 G!
b00000000000000000000000000011110 I!
b00000000000000000000000000110000 J!
b00000000000000000000000000011110 K!
1L!
#24
b00000000000000000000000000011110 =
0}
b00000000000000000000000000011110 $!
#25
b00000000000000000000000000101100 $
b00000000000000000000000000101000 %
b00000000000000000000000000000000 ,
1-
b00000 6
07
b00100 8
b00000000000000000000000000110000 [
b00000000000000000000000000001010 l
b00000000000000000000000000110100 n
b00000000000000000000000000100100 z
b00000000000000000000000000000000 {
1}
b00000000000000000000000000110100 E!
b00000000000000000000000000101000 F!
b00000000000000000000000000001010 I!
b00000000000000000000000000110100 J!
b00000000000000000000000000001010 K!
#26
b00000000000000000000000000001010 >
0}
b00000000000000000000000000001010 %!
#27
b00000000000000000000000000110000 $
b00000000000000000000000000101100 %
b00000 8
09
b00000000000000000000000000110100 [
b00000000000000000000000000000000 l
b00000000000000000000000000111000 n
b00000000000000000000000000101000 z
1}
b00000000000000000000000000111000 E!
b00000000000000000000000000101100 F!
b00000000000000000000000000000000 I!
b00000000000000000000000000111000 J!
b00000000000000000000000000000000 K!
#28
0}
#29
b00000000000000000000000000110100 $
b00000000000000000000000000110000 %
b00000000000000000000000000111000 [
b00000000000000000000000000111100 n
b00000000000000000000000000101100 z
1}
b00000000000000000000000000111100 E!
b00000000000000000000000000110000 F!
b00000000000000000000000000111100 J!
#30
0}
#31
b00000000000000000000000000111000 $
b00000000000000000000000000110100 %
b00000000000000000000000000111100 [
b00000000000000000000000001000000 n
b00000000000000000000000000110000 z
1}
b00000000000000000000000001000000 E!
b00000000000000000000000000110100 F!
b00000000000000000000000001000000 J!
#32
0}
#33
b00000000000000000000000000111100 $
b00000000000000000000000000111000 %
b00000000000000000000000001000000 [
b00000000000000000000000001000100 n
b00000000000000000000000000110100 z
1}
b00000000000000000000000001000100 E!
b00000000000000000000000000111000 F!
b00000000000000000000000001000100 J!
#34
0}
#35
b00000000000000000000000001000000 $
b00000000000000000000000000111100 %
b00000000000000000000000001000100 [
b00000000000000000000000001001000 n
b00000000000000000000000000111000 z
1}
b00000000000000000000000001001000 E!
b00000000000000000000000000111100 F!
b00000000000000000000000001001000 J!
#36
0}
#37
b00000000000000000000000001000100 $
b00000000000000000000000001000000 %
b00000000000000000000000001001000 [
b00000000000000000000000001001100 n
b00000000000000000000000000111100 z
1}
b00000000000000000000000001001100 E!
b00000000000000000000000001000000 F!
b00000000000000000000000001001100 J!
#38
0}
#39
b00000000000000000000000001001000 $
b00000000000000000000000001000100 %
b00000000000000000000000001001100 [
b00000000000000000000000001010000 n
b00000000000000000000000001000000 z
1}
b00000000000000000000000001010000 E!
b00000000000000000000000001000100 F!
b00000000000000000000000001010000 J!
#40
0}
#41
b00000000000000000000000001001100 $
b00000000000000000000000001001000 %
b00000000000000000000000001010000 [
b00000000000000000000000001010100 n
b00000000000000000000000001000100 z
1}
b00000000000000000000000001010100 E!
b00000000000000000000000001001000 F!
b00000000000000000000000001010100 J!
#42
0}
#43
b00000000000000000000000001010000 $
b00000000000000000000000001001100 %
b00000000000000000000000001010100 [
b00000000000000000000000001011000 n
b00000000000000000000000001001000 z
1}
b00000000000000000000000001011000 E!
b00000000000000000000000001001100 F!
b00000000000000000000000001011000 J!
#44
0}
#45
b00000000000000000000000001010100 $
b00000000000000000000000001010000 %
b00000000000000000000000001011000 [
b00000000000000000000000001011100 n
b00000000000000000000000001001100 z
1}
b00000000000000000000000001011100 E!
b00000000000000000000000001010000 F!
b00000000000000000000000001011100 J!
#46
0}
#47
b00000000000000000000000001011000 $
b00000000000000000000000001010100 %
b00000000000000000000000001011100 [
b00000000000000000000000001100000 n
b00000000000000000000000001010000 z
1}
b00000000000000000000000001100000 E!
b00000000000000000000000001010100 F!
b00000000000000000000000001100000 J!
#48
0}
#49
b00000000000000000000000001011100 $
b00000000000000000000000001011000 %
b00000000000000000000000001100000 [
b00000000000000000000000001100100 n
b00000000000000000000000001010100 z
1}
b00000000000000000000000001100100 E!
b00000000000000000000000001011000 F!
b00000000000000000000000001100100 J!
#50
0}
#51
b00000000000000000000000001100000 $
b00000000000000000000000001011100 %
b00000000000000000000000001100100 [
b00000000000000000000000001101000 n
b00000000000000000000000001011000 z
1}
b00000000000000000000000001101000 E!
b00000000000000000000000001011100 F!
b00000000000000000000000001101000 J!
#52
0}
#53
b00000000000000000000000001100100 $
b00000000000000000000000001100000 %
b00000000000000000000000001101000 [
b00000000000000000000000001101100 n
b00000000000000000000000001011100 z
1}
b00000000000000000000000001101100 E!
b00000000000000000000000001100000 F!
b00000000000000000000000001101100 J!
#54
0}
#55
b00000000000000000000000001101000 $
b00000000000000000000000001100100 %
b00000000000000000000000001101100 [
b00000000000000000000000001110000 n
b00000000000000000000000001100000 z
1}
b00000000000000000000000001110000 E!
b00000000000000000000000001100100 F!
b00000000000000000000000001110000 J!
#56
0}
#57
b00000000000000000000000001101100 $
b00000000000000000000000001101000 %
b00000000000000000000000001110000 [
b00000000000000000000000001110100 n
b00000000000000000000000001100100 z
1}
b00000000000000000000000001110100 E!
b00000000000000000000000001101000 F!
b00000000000000000000000001110100 J!
#58
0}
#59
b00000000000000000000000001110000 $
b00000000000000000000000001101100 %
b00000000000000000000000001110100 [
b00000000000000000000000001111000 n
b00000000000000000000000001101000 z
1}
b00000000000000000000000001111000 E!
b00000000000000000000000001101100 F!
b00000000000000000000000001111000 J!
#60
0}
#61
b00000000000000000000000001110100 $
b00000000000000000000000001110000 %
b00000000000000000000000001111000 [
b00000000000000000000000001111100 n
b00000000000000000000000001101100 z
1}
b00000000000000000000000001111100 E!
b00000000000000000000000001110000 F!
b00000000000000000000000001111100 J!
#62
0}
#63
b00000000000000000000000001111000 $
b00000000000000000000000001110100 %
b00000000000000000000000001111100 [
b00000000000000000000000010000000 n
b00000000000000000000000001110000 z
1}
b00000000000000000000000010000000 E!
b00000000000000000000000001110100 F!
b00000000000000000000000010000000 J!
#64
0}
