111550175_lab2/waveform.vcd
$version Generated by VerilatedVcd $end
$timescale 1s $end

 $scope module TOP $end
  $var wire  1 X clk $end
  $var wire 32 Z r[0] [31:0] $end
  $var wire 32 d r[10] [31:0] $end
  $var wire 32 e r[11] [31:0] $end
  $var wire 32 f r[12] [31:0] $end
  $var wire 32 g r[13] [31:0] $end
  $var wire 32 h r[14] [31:0] $end
  $var wire 32 i r[15] [31:0] $end
  $var wire 32 j r[16] [31:0] $end
  $var wire 32 k r[17] [31:0] $end
  $var wire 32 l r[18] [31:0] $end
  $var wire 32 m r[19] [31:0] $end
  $var wire 32 [ r[1] [31:0] $end
  $var wire 32 n r[20] [31:0] $end
  $var wire 32 o r[21] [31:0] $end
  $var wire 32 p r[22] [31:0] $end
  $var wire 32 q r[23] [31:0] $end
  $var wire 32 r r[24] [31:0] $end
  $var wire 32 s r[25] [31:0] $end
  $var wire 32 t r[26] [31:0] $end
  $var wire 32 u r[27] [31:0] $end
  $var wire 32 v r[28] [31:0] $end
  $var wire 32 w r[29] [31:0] $end
  $var wire 32 \ r[2] [31:0] $end
  $var wire 32 x r[30] [31:0] $end
  $var wire 32 y r[31] [31:0] $end
  $var wire 32 ] r[3] [31:0] $end
  $var wire 32 ^ r[4] [31:0] $end
  $var wire 32 _ r[5] [31:0] $end
  $var wire 32 ` r[6] [31:0] $end
  $var wire 32 a r[7] [31:0] $end
  $var wire 32 b r[8] [31:0] $end
  $var wire 32 c r[9] [31:0] $end
  $var wire  1 Y start $end
  $scope module SingleCycleCPU $end
   $var wire  3 L ALU_Op [2:0] $end
   $var wire  4 K ALU_ctl [3:0] $end
   $var wire 32 U ALU_res [31:0] $end
   $var wire  1 P ALU_src $end
   $var wire 32 "! MALU_o [31:0] $end
   $var wire  1 T branc $end
   $var wire  1 X clk $end
   $var wire 32 | imm_out [31:0] $end
   $var wire 32 H inst_out [31:0] $end
   $var wire  1 R jal_con $end
   $var wire  1 S jalr_con $end
   $var wire  1 M mem_read $end
   $var wire  1 N mem_to_reg $end
   $var wire  1 O mem_write $end
   $var wire 32 %! mux_pc_output [31:0] $end
   $var wire 32 '! mux_writedata_output [31:0] $end
   $var wire 32 ~ pc_input [31:0] $end
   $var wire 32 # pc_output [31:0] $end
   $var wire 32 Z r[0] [31:0] $end
   $var wire 32 d r[10] [31:0] $end
   $var wire 32 e r[11] [31:0] $end
   $var wire 32 f r[12] [31:0] $end
   $var wire 32 g r[13] [31:0] $end
   $var wire 32 h r[14] [31:0] $end
   $var wire 32 i r[15] [31:0] $end
   $var wire 32 j r[16] [31:0] $end
   $var wire 32 k r[17] [31:0] $end
   $var wire 32 l r[18] [31:0] $end
   $var wire 32 m r[19] [31:0] $end
   $var wire 32 [ r[1] [31:0] $end
   $var wire 32 n r[20] [31:0] $end
   $var wire 32 o r[21] [31:0] $end
   $var wire 32 p r[22] [31:0] $end
   $var wire 32 q r[23] [31:0] $end
   $var wire 32 r r[24] [31:0] $end
   $var wire 32 s r[25] [31:0] $end
   $var wire 32 t r[26] [31:0] $end
   $var wire 32 u r[27] [31:0] $end
   $var wire 32 v r[28] [31:0] $end
   $var wire 32 w r[29] [31:0] $end
   $var wire 32 \ r[2] [31:0] $end
   $var wire 32 x r[30] [31:0] $end
   $var wire 32 y r[31] [31:0] $end
   $var wire 32 ] r[3] [31:0] $end
   $var wire 32 ^ r[4] [31:0] $end
   $var wire 32 _ r[5] [31:0] $end
   $var wire 32 ` r[6] [31:0] $end
   $var wire 32 a r[7] [31:0] $end
   $var wire 32 b r[8] [31:0] $end
   $var wire 32 c r[9] [31:0] $end
   $var wire 32 #! read_data [31:0] $end
   $var wire 32 z read_data1 [31:0] $end
   $var wire 32 { read_data2 [31:0] $end
   $var wire  1 Q reg_write $end
   $var wire 32 } shift_left_one [31:0] $end
   $var wire  1 Y start $end
   $var wire 32 I sum_1 [31:0] $end
   $var wire 32 !! sum_2 [31:0] $end
   $var wire 32 &! sum_jalr [31:0] $end
   $var wire  1 W w1 $end
   $var wire 32 $! write_data [31:0] $end
   $var wire  1 V zero_o $end
   $scope module m_ALU $end
    $var wire 32 z A [31:0] $end
    $var wire 32 U ALUOut [31:0] $end
    $var wire  4 K ALUctl [3:0] $end
    $var wire 32 "! B [31:0] $end
    $var wire  1 V zero $end
   $upscope $end
   $scope module m_ALUCtrl $end
    $var wire  4 K ALUCtl [3:0] $end
    $var wire  3 L ALUOp [2:0] $end
    $var wire  3 % funct3 [2:0] $end
    $var wire  1 $ funct7 $end
   $upscope $end
   $scope module m_Adder_1 $end
    $var wire 32 # a [31:0] $end
    $var wire 32 )! b [31:0] $end
    $var wire 32 I sum [31:0] $end
   $upscope $end
   $scope module m_Adder_2 $end
    $var wire 32 # a [31:0] $end
    $var wire 32 } b [31:0] $end
    $var wire 32 !! sum [31:0] $end
   $upscope $end
   $scope module m_Adder_jalr $end
    $var wire 32 z a [31:0] $end
    $var wire 32 | b [31:0] $end
    $var wire 32 &! sum [31:0] $end
   $upscope $end
   $scope module m_Control $end
    $var wire  3 L ALUOp [2:0] $end
    $var wire  1 P ALUSrc $end
    $var wire  1 T branch $end
    $var wire  1 R jalcon $end
    $var wire  1 S jalrcon $end
    $var wire  1 M memRead $end
    $var wire  1 O memWrite $end
    $var wire  1 N memtoReg $end
    $var wire  7 J opcode [6:0] $end
    $var wire  1 Q regWrite $end
   $upscope $end
   $scope module m_DataMemory $end
    $var wire 32 U address [31:0] $end
    $var wire  1 X clk $end
    $var wire  1 M memRead $end
    $var wire  1 O memWrite $end
    $var wire 32 #! readData [31:0] $end
    $var wire  1 Y rst $end
    $var wire 32 { writeData [31:0] $end
   $upscope $end
   $scope module m_ImmGen $end
    $var wire 32 | imm [31:0] $end
    $var wire 32 H inst [31:0] $end
    $var wire  7 J opcode [6:0] $end
   $upscope $end
   $scope module m_InstMem $end
    $var wire 32 H inst [31:0] $end
    $var wire 32 # readAddr [31:0] $end
   $upscope $end
   $scope module m_Mux_ALU $end
    $var wire 32 "! out [31:0] $end
    $var wire 32 { s0 [31:0] $end
    $var wire 32 | s1 [31:0] $end
    $var wire  1 P sel $end
    $var wire 32 *! size [31:0] $end
   $upscope $end
   $scope module m_Mux_PC $end
    $var wire 32 %! out [31:0] $end
    $var wire 32 I s0 [31:0] $end
    $var wire 32 !! s1 [31:0] $end
    $var wire  1 W sel $end
    $var wire 32 *! size [31:0] $end
   $upscope $end
   $scope module m_Mux_PC2 $end
    $var wire 32 ~ out [31:0] $end
    $var wire 32 %! s0 [31:0] $end
    $var wire 32 &! s1 [31:0] $end
    $var wire  1 S sel $end
    $var wire 32 *! size [31:0] $end
   $upscope $end
   $scope module m_Mux_WriteData $end
    $var wire 32 '! out [31:0] $end
    $var wire 32 U s0 [31:0] $end
    $var wire 32 #! s1 [31:0] $end
    $var wire  1 N sel $end
    $var wire 32 *! size [31:0] $end
   $upscope $end
   $scope module m_Mux_WriteData_jal $end
    $var wire 32 $! out [31:0] $end
    $var wire 32 '! s0 [31:0] $end
    $var wire 32 I s1 [31:0] $end
    $var wire  1 R sel $end
    $var wire 32 *! size [31:0] $end
   $upscope $end
   $scope module m_PC $end
    $var wire  1 X clk $end
    $var wire 32 ~ pc_i [31:0] $end
    $var wire 32 # pc_o [31:0] $end
    $var wire  1 Y rst $end
   $upscope $end
   $scope module m_Register $end
    $var wire  1 X clk $end
    $var wire 32 z readData1 [31:0] $end
    $var wire 32 { readData2 [31:0] $end
    $var wire  5 & readReg1 [4:0] $end
    $var wire  5 ' readReg2 [4:0] $end
    $var wire  1 Q regWrite $end
    $var wire 32 ( regs[0] [31:0] $end
    $var wire 32 2 regs[10] [31:0] $end
    $var wire 32 3 regs[11] [31:0] $end
    $var wire 32 4 regs[12] [31:0] $end
    $var wire 32 5 regs[13] [31:0] $end
    $var wire 32 6 regs[14] [31:0] $end
    $var wire 32 7 regs[15] [31:0] $end
    $var wire 32 8 regs[16] [31:0] $end
    $var wire 32 9 regs[17] [31:0] $end
    $var wire 32 : regs[18] [31:0] $end
    $var wire 32 ; regs[19] [31:0] $end
    $var wire 32 ) regs[1] [31:0] $end
    $var wire 32 < regs[20] [31:0] $end
    $var wire 32 = regs[21] [31:0] $end
    $var wire 32 > regs[22] [31:0] $end
    $var wire 32 ? regs[23] [31:0] $end
    $var wire 32 @ regs[24] [31:0] $end
    $var wire 32 A regs[25] [31:0] $end
    $var wire 32 B regs[26] [31:0] $end
    $var wire 32 C regs[27] [31:0] $end
    $var wire 32 D regs[28] [31:0] $end
    $var wire 32 E regs[29] [31:0] $end
    $var wire 32 * regs[2] [31:0] $end
    $var wire 32 F regs[30] [31:0] $end
    $var wire 32 G regs[31] [31:0] $end
    $var wire 32 + regs[3] [31:0] $end
    $var wire 32 , regs[4] [31:0] $end
    $var wire 32 - regs[5] [31:0] $end
    $var wire 32 . regs[6] [31:0] $end
    $var wire 32 / regs[7] [31:0] $end
    $var wire 32 0 regs[8] [31:0] $end
    $var wire 32 1 regs[9] [31:0] $end
    $var wire  1 Y rst $end
    $var wire 32 $! writeData [31:0] $end
    $var wire  5 (! writeReg [4:0] $end
   $upscope $end
   $scope module m_ShiftLeftOne $end
    $var wire 32 | i [31:0] $end
    $var wire 32 } o [31:0] $end
   $upscope $end
  $upscope $end
 $upscope $end
$enddefinitions $end


#0
b00000000000000000000000000000000 #
0$
b000 %
b00000 &
b00100 '
b00000000000000000000000000000000 (
b00000000000000000000000000000000 )
b00000000000000000000000000000000 *
b00000000000000000000000000000000 +
b00000000000000000000000000000000 ,
b00000000000000000000000000000000 -
b00000000000000000000000000000000 .
b00000000000000000000000000000000 /
b00000000000000000000000000000000 0
b00000000000000000000000000000000 1
b00000000000000000000000000000000 2
b00000000000000000000000000000000 3
b00000000000000000000000000000000 4
b00000000000000000000000000000000 5
b00000000000000000000000000000000 6
b00000000000000000000000000000000 7
b00000000000000000000000000000000 8
b00000000000000000000000000000000 9
b00000000000000000000000000000000 :
b00000000000000000000000000000000 ;
b00000000000000000000000000000000 <
b00000000000000000000000000000000 =
b00000000000000000000000000000000 >
b00000000000000000000000000000000 ?
b00000000000000000000000000000000 @
b00000000000000000000000000000000 A
b00000000000000000000000000000000 B
b00000000000000000000000000000000 C
b00000000000000000000000000000000 D
b00000000000000000000000000000000 E
b00000000000000000000000000000000 F
b00000000000000000000000000000000 G
b00000000010000000000011000010011 H
b00000000000000000000000000000100 I
b0010011 J
b0010 K
b011 L
0M
0N
0O
1P
1Q
0R
0S
0T
b00000000000000000000000000000100 U
0V
0W
0X
1Y
b00000000000000000000000000000000 Z
b00000000000000000000000000000000 [
b00000000000000000000000000000000 \
b00000000000000000000000000000000 ]
b00000000000000000000000000000000 ^
b00000000000000000000000000000000 _
b00000000000000000000000000000000 `
b00000000000000000000000000000000 a
b00000000000000000000000000000000 b
b00000000000000000000000000000000 c
b00000000000000000000000000000000 d
b00000000000000000000000000000000 e
b00000000000000000000000000000000 f
b00000000000000000000000000000000 g
b00000000000000000000000000000000 h
b00000000000000000000000000000000 i
b00000000000000000000000000000000 j
b00000000000000000000000000000000 k
b00000000000000000000000000000000 l
b00000000000000000000000000000000 m
b00000000000000000000000000000000 n
b00000000000000000000000000000000 o
b00000000000000000000000000000000 p
b00000000000000000000000000000000 q
b00000000000000000000000000000000 r
b00000000000000000000000000000000 s
b00000000000000000000000000000000 t
b00000000000000000000000000000000 u
b00000000000000000000000000000000 v
b00000000000000000000000000000000 w
b00000000000000000000000000000000 x
b00000000000000000000000000000000 y
b00000000000000000000000000000000 z
b00000000000000000000000000000000 {
b00000000000000000000000000000100 |
b00000000000000000000000000001000 }
b00000000000000000000000000000100 ~
b00000000000000000000000000001000 !!
b00000000000000000000000000000100 "!
b00000000000000000000000000000000 #!
b00000000000000000000000000000100 $!
b00000000000000000000000000000100 %!
b00000000000000000000000000000100 &!
b00000000000000000000000000000100 '!
b01100 (!
b00000000000000000000000000000100 )!
b00000000000000000000000000100000 *!
#1
b00000000000000000000000010000000 *
1X
0Y
b00000000000000000000000010000000 \
#2
b00000000000000000000000000000100 4
0X
1Y
b00000000000000000000000000000100 f
#3
b00000000000000000000000000000100 #
b01100 '
b00000000110000000000000011101111 H
b00000000000000000000000000001000 I
b1101111 J
b1000 K
b100 L
0P
1R
1T
b11111111111111111111111111111100 U
1V
1W
1X
b00000000000000000000000000000100 {
b00000000000000000000000000000110 |
b00000000000000000000000000001100 }
b00000000000000000000000000010000 ~
b00000000000000000000000000010000 !!
b00000000000000000000000000001000 $!
b00000000000000000000000000010000 %!
b00000000000000000000000000000110 &!
b11111111111111111111111111111100 '!
b00001 (!
#4
b00000000000000000000000000001000 )
0X
b00000000000000000000000000001000 [
#5
b00000000000000000000000000010000 #
1$
b00010 &
b10100 '
b11111111010000010000000100010011 H
b00000000000000000000000000010100 I
b0010011 J
b0010 K
b011 L
1P
0R
0T
b00000000000000000000000001110100 U
0V
0W
1X
b00000000000000000000000010000000 z
b00000000000000000000000000000000 {
b11111111111111111111111111110100 |
b11111111111111111111111111101000 }
b00000000000000000000000000010100 ~
b11111111111111111111111111111000 !!
b11111111111111111111111111110100 "!
b00000000000000000000000001110100 $!
b00000000000000000000000000010100 %!
b00000000000000000000000001110100 &!
b00000000000000000000000001110100 '!
b00010 (!
#6
b00000000000000000000000001110100 *
b00000000000000000000000001101000 U
0X
b00000000000000000000000001110100 \
b00000000000000000000000001110100 z
b00000000000000000000000001101000 $!
b00000000000000000000000001101000 &!
b00000000000000000000000001101000 '!
#7
b00000000000000000000000000010100 #
0$
b010 %
b00001 '
b00000000000100010010010000100011 H
b00000000000000000000000000011000 I
b0100011 J
b000 L
1O
0Q
b00000000000000000000000001111100 U
1X
b00000000000000000000000000001000 {
b00000000000000000000000000001000 |
b00000000000000000000000000010000 }
b00000000000000000000000000011000 ~
b00000000000000000000000000100100 !!
b00000000000000000000000000001000 "!
b00000000000000000000000001111100 $!
b00000000000000000000000000011000 %!
b00000000000000000000000001111100 &!
b00000000000000000000000001111100 '!
b01000 (!
#8
0X
#9
b00000000000000000000000000011000 #
b01000 '
b00000000100000010010001000100011 H
b00000000000000000000000000011100 I
b00000000000000000000000001111000 U
1X
b00000000000000000000000000000000 {
b00000000000000000000000000000100 |
b00000000000000000000000000001000 }
b00000000000000000000000000011100 ~
b00000000000000000000000000100000 !!
b00000000000000000000000000000100 "!
b00000000000000000000000001111000 $!
b00000000000000000000000000011100 %!
b00000000000000000000000001111000 &!
b00000000000000000000000001111000 '!
b00100 (!
#10
0X
#11
b00000000000000000000000000011100 #
b000 %
b00000 &
b00000 '
b00000000000000000000010100010011 H
b00000000000000000000000000100000 I
b0010011 J
b011 L
0O
1Q
b00000000000000000000000000000000 U
1X
b00000000000000000000000000000000 z
b00000000000000000000000000000000 |
b00000000000000000000000000000000 }
b00000000000000000000000000100000 ~
b00000000000000000000000000011100 !!
b00000000000000000000000000000000 "!
b00000000000000000000000000000000 $!
b00000000000000000000000000100000 %!
b00000000000000000000000000000000 &!
b00000000000000000000000000000000 '!
b01010 (!
#12
0X
#13
b00000000000000000000000000100000 #
b01100 &
b00000010000001100000011001100011 H
b00000000000000000000000000100100 I
b1100011 J
b0110 K
b001 L
0P
0Q
1T
b00000000000000000000000000000100 U
1X
b00000000000000000000000000000100 z
b00000000000000000000000000010110 |
b00000000000000000000000000101100 }
b00000000000000000000000000100100 ~
b00000000000000000000000001001100 !!
b00000000000000000000000000000100 $!
b00000000000000000000000000100100 %!
b00000000000000000000000000011010 &!
b00000000000000000000000000000100 '!
b01100 (!
#14
0X
#15
b00000000000000000000000000100100 #
b01010 &
b00001 '
b00000000000101010000010100010011 H
b00000000000000000000000000101000 I
b0010011 J
b0010 K
b011 L
1P
1Q
0T
b00000000000000000000000000000001 U
1X
b00000000000000000000000000000000 z
b00000000000000000000000000001000 {
b00000000000000000000000000000001 |
b00000000000000000000000000000010 }
b00000000000000000000000000101000 ~
b00000000000000000000000000100110 !!
b00000000000000000000000000000001 "!
b00000000000000000000000000000001 $!
b00000000000000000000000000101000 %!
b00000000000000000000000000000001 &!
b00000000000000000000000000000001 '!
b01010 (!
#16
b00000000000000000000000000000001 2
b00000000000000000000000000000010 U
0X
b00000000000000000000000000000001 d
b00000000000000000000000000000001 z
b00000000000000000000000000000010 $!
b00000000000000000000000000000010 &!
b00000000000000000000000000000010 '!
#17
b00000000000000000000000000101000 #
b01100 &
b01010 '
b00000010101001100000001001100011 H
b00000000000000000000000000101100 I
b1100011 J
b0110 K
b001 L
0P
0Q
1T
b00000000000000000000000000000011 U
1X
b00000000000000000000000000000100 z
b00000000000000000000000000000001 {
b00000000000000000000000000010010 |
b00000000000000000000000000100100 }
b00000000000000000000000000101100 ~
b00000000000000000000000001001100 !!
b00000000000000000000000000000011 $!
b00000000000000000000000000101100 %!
b00000000000000000000000000010110 &!
b00000000000000000000000000000011 '!
b00100 (!
#18
0X
#19
b00000000000000000000000000101100 #
1$
b11111 '
b11111111111101100000011000010011 H
b00000000000000000000000000110000 I
b0010011 J
b0010 K
b011 L
1P
1Q
0T
1X
b00000000000000000000000000000000 {
b11111111111111111111111111111111 |
b11111111111111111111111111111110 }
b00000000000000000000000000110000 ~
b00000000000000000000000000101010 !!
b11111111111111111111111111111111 "!
b00000000000000000000000000110000 %!
b00000000000000000000000000000011 &!
b01100 (!
#20
b00000000000000000000000000000011 4
b00000000000000000000000000000010 U
0X
b00000000000000000000000000000011 f
b00000000000000000000000000000011 z
b00000000000000000000000000000010 $!
b00000000000000000000000000000010 &!
b00000000000000000000000000000010 '!
#21
b00000000000000000000000000110000 #
0$
b010 %
b00010 &
b01100 '
b00000000110000010010000000100011 H
b00000000000000000000000000110100 I
b0100011 J
b000 L
1O
0Q
b00000000000000000000000001110100 U
1X
b00000000000000000000000001110100 z
b00000000000000000000000000000011 {
b00000000000000000000000000000000 |
b00000000000000000000000000000000 }
b00000000000000000000000000110100 ~
b00000000000000000000000000110000 !!
b00000000000000000000000000000000 "!
b00000000000000000000000001110100 $!
b00000000000000000000000000110100 %!
b00000000000000000000000001110100 &!
b00000000000000000000000001110100 '!
b00000 (!
#22
0X
#23
b00000000000000000000000000110100 #
1$
b111 %
b11111 &
b11101 '
b11111101110111111111000011101111 H
b00000000000000000000000000111000 I
b1101111 J
b1000 K
b100 L
0O
0P
1Q
1R
1T
b00000000000000000000000000000000 U
1V
1W
1X
b00000000000000000000000000000000 z
b00000000000000000000000000000000 {
b11111111111111111111111111101110 |
b11111111111111111111111111011100 }
b00000000000000000000000000010000 ~
b00000000000000000000000000010000 !!
b00000000000000000000000000111000 $!
b00000000000000000000000000010000 %!
b11111111111111111111111111101110 &!
b00000000000000000000000000000000 '!
b00001 (!
#24
b00000000000000000000000000111000 )
0X
b00000000000000000000000000111000 [
#25
b00000000000000000000000000010000 #
b000 %
b00010 &
b10100 '
b11111111010000010000000100010011 H
b00000000000000000000000000010100 I
b0010011 J
b0010 K
b011 L
1P
0R
0T
b00000000000000000000000001101000 U
0V
0W
1X
b00000000000000000000000001110100 z
b11111111111111111111111111110100 |
b11111111111111111111111111101000 }
b00000000000000000000000000010100 ~
b11111111111111111111111111111000 !!
b11111111111111111111111111110100 "!
b00000000000000000000000001101000 $!
b00000000000000000000000000010100 %!
b00000000000000000000000001101000 &!
b00000000000000000000000001101000 '!
b00010 (!
#26
b00000000000000000000000001101000 *
b00000000000000000000000001011100 U
0X
b00000000000000000000000001101000 \
b00000000000000000000000001101000 z
b00000000000000000000000001011100 $!
b00000000000000000000000001011100 &!
b00000000000000000000000001011100 '!
#27
b00000000000000000000000000010100 #
0$
b010 %
b00001 '
b00000000000100010010010000100011 H
b00000000000000000000000000011000 I
b0100011 J
b000 L
1O
0Q
b00000000000000000000000001110000 U
1X
b00000000000000000000000000111000 {
b00000000000000000000000000001000 |
b00000000000000000000000000010000 }
b00000000000000000000000000011000 ~
b00000000000000000000000000100100 !!
b00000000000000000000000000001000 "!
b00000000000000000000000001110000 $!
b00000000000000000000000000011000 %!
b00000000000000000000000001110000 &!
b00000000000000000000000001110000 '!
b01000 (!
#28
0X
#29
b00000000000000000000000000011000 #
b01000 '
b00000000100000010010001000100011 H
b00000000000000000000000000011100 I
b00000000000000000000000001101100 U
1X
b00000000000000000000000000000000 {
b00000000000000000000000000000100 |
b00000000000000000000000000001000 }
b00000000000000000000000000011100 ~
b00000000000000000000000000100000 !!
b00000000000000000000000000000100 "!
b00000000000000000000000001101100 $!
b00000000000000000000000000011100 %!
b00000000000000000000000001101100 &!
b00000000000000000000000001101100 '!
b00100 (!
#30
0X
#31
b00000000000000000000000000011100 #
b000 %
b00000 &
b00000 '
b00000000000000000000010100010011 H
b00000000000000000000000000100000 I
b0010011 J
b011 L
0O
1Q
b00000000000000000000000000000000 U
1X
b00000000000000000000000000000000 z
b00000000000000000000000000000000 |
b00000000000000000000000000000000 }
b00000000000000000000000000100000 ~
b00000000000000000000000000011100 !!
b00000000000000000000000000000000 "!
b00000000000000000000000000000000 $!
b00000000000000000000000000100000 %!
b00000000000000000000000000000000 &!
b00000000000000000000000000000000 '!
b01010 (!
#32
b00000000000000000000000000000000 2
0X
b00000000000000000000000000000000 d
#33
b00000000000000000000000000100000 #
b01100 &
b00000010000001100000011001100011 H
b00000000000000000000000000100100 I
b1100011 J
b0110 K
b001 L
0P
0Q
1T
b00000000000000000000000000000011 U
1X
b00000000000000000000000000000011 z
b00000000000000000000000000010110 |
b00000000000000000000000000101100 }
b00000000000000000000000000100100 ~
b00000000000000000000000001001100 !!
b00000000000000000000000000000011 $!
b00000000000000000000000000100100 %!
b00000000000000000000000000011001 &!
b00000000000000000000000000000011 '!
b01100 (!
#34
0X
#35
b00000000000000000000000000100100 #
b01010 &
b00001 '
b00000000000101010000010100010011 H
b00000000000000000000000000101000 I
b0010011 J
b0010 K
b011 L
1P
1Q
0T
b00000000000000000000000000000001 U
1X
b00000000000000000000000000000000 z
b00000000000000000000000000111000 {
b00000000000000000000000000000001 |
b00000000000000000000000000000010 }
b00000000000000000000000000101000 ~
b00000000000000000000000000100110 !!
b00000000000000000000000000000001 "!
b00000000000000000000000000000001 $!
b00000000000000000000000000101000 %!
b00000000000000000000000000000001 &!
b00000000000000000000000000000001 '!
b01010 (!
#36
b00000000000000000000000000000001 2
b00000000000000000000000000000010 U
0X
b00000000000000000000000000000001 d
b00000000000000000000000000000001 z
b00000000000000000000000000000010 $!
b00000000000000000000000000000010 &!
b00000000000000000000000000000010 '!
#37
b00000000000000000000000000101000 #
b01100 &
b01010 '
b00000010101001100000001001100011 H
b00000000000000000000000000101100 I
b1100011 J
b0110 K
b001 L
0P
0Q
1T
1X
b00000000000000000000000000000011 z
b00000000000000000000000000000001 {
b00000000000000000000000000010010 |
b00000000000000000000000000100100 }
b00000000000000000000000000101100 ~
b00000000000000000000000001001100 !!
b00000000000000000000000000101100 %!
b00000000000000000000000000010101 &!
b00100 (!
#38
0X
#39
b00000000000000000000000000101100 #
1$
b11111 '
b11111111111101100000011000010011 H
b00000000000000000000000000110000 I
b0010011 J
b0010 K
b011 L
1P
1Q
0T
1X
b00000000000000000000000000000000 {
b11111111111111111111111111111111 |
b11111111111111111111111111111110 }
b00000000000000000000000000110000 ~
b00000000000000000000000000101010 !!
b11111111111111111111111111111111 "!
b00000000000000000000000000110000 %!
b00000000000000000000000000000010 &!
b01100 (!
#40
b00000000000000000000000000000010 4
b00000000000000000000000000000001 U
0X
b00000000000000000000000000000010 f
b00000000000000000000000000000010 z
b00000000000000000000000000000001 $!
b00000000000000000000000000000001 &!
b00000000000000000000000000000001 '!
#41
b00000000000000000000000000110000 #
0$
b010 %
b00010 &
b01100 '
b00000000110000010010000000100011 H
b00000000000000000000000000110100 I
b0100011 J
b000 L
1O
0Q
b00000000000000000000000001101000 U
1X
b00000000000000000000000001101000 z
b00000000000000000000000000000010 {
b00000000000000000000000000000000 |
b00000000000000000000000000000000 }
b00000000000000000000000000110100 ~
b00000000000000000000000000110000 !!
b00000000000000000000000000000000 "!
b00000000000000000000000001101000 $!
b00000000000000000000000000110100 %!
b00000000000000000000000001101000 &!
b00000000000000000000000001101000 '!
b00000 (!
#42
0X
#43
b00000000000000000000000000110100 #
1$
b111 %
b11111 &
b11101 '
b11111101110111111111000011101111 H
b00000000000000000000000000111000 I
b1101111 J
b1000 K
b100 L
0O
0P
1Q
1R
1T
b00000000000000000000000000000000 U
1V
1W
1X
b00000000000000000000000000000000 z
b00000000000000000000000000000000 {
b11111111111111111111111111101110 |
b11111111111111111111111111011100 }
b00000000000000000000000000010000 ~
b00000000000000000000000000010000 !!
b00000000000000000000000000111000 $!
b00000000000000000000000000010000 %!
b11111111111111111111111111101110 &!
b00000000000000000000000000000000 '!
b00001 (!
#44
0X
#45
b00000000000000000000000000010000 #
b000 %
b00010 &
b10100 '
b11111111010000010000000100010011 H
b00000000000000000000000000010100 I
b0010011 J
b0010 K
b011 L
1P
0R
0T
b00000000000000000000000001011100 U
0V
0W
1X
b00000000000000000000000001101000 z
b11111111111111111111111111110100 |
b11111111111111111111111111101000 }
b00000000000000000000000000010100 ~
b11111111111111111111111111111000 !!
b11111111111111111111111111110100 "!
b00000000000000000000000001011100 $!
b00000000000000000000000000010100 %!
b00000000000000000000000001011100 &!
b00000000000000000000000001011100 '!
b00010 (!
#46
b00000000000000000000000001011100 *
b00000000000000000000000001010000 U
0X
b00000000000000000000000001011100 \
b00000000000000000000000001011100 z
b00000000000000000000000001010000 $!
b00000000000000000000000001010000 &!
b00000000000000000000000001010000 '!
#47
b00000000000000000000000000010100 #
0$
b010 %
b00001 '
b00000000000100010010010000100011 H
b00000000000000000000000000011000 I
b0100011 J
b000 L
1O
0Q
b00000000000000000000000001100100 U
1X
b00000000000000000000000000111000 {
b00000000000000000000000000001000 |
b00000000000000000000000000010000 }
b00000000000000000000000000011000 ~
b00000000000000000000000000100100 !!
b00000000000000000000000000001000 "!
b00000000000000000000000001100100 $!
b00000000000000000000000000011000 %!
b00000000000000000000000001100100 &!
b00000000000000000000000001100100 '!
b01000 (!
#48
0X
#49
b00000000000000000000000000011000 #
b01000 '
b00000000100000010010001000100011 H
b00000000000000000000000000011100 I
b00000000000000000000000001100000 U
1X
b00000000000000000000000000000000 {
b00000000000000000000000000000100 |
b00000000000000000000000000001000 }
b00000000000000000000000000011100 ~
b00000000000000000000000000100000 !!
b00000000000000000000000000000100 "!
b00000000000000000000000001100000 $!
b00000000000000000000000000011100 %!
b00000000000000000000000001100000 &!
b00000000000000000000000001100000 '!
b00100 (!
#50
0X
#51
b00000000000000000000000000011100 #
b000 %
b00000 &
b00000 '
b00000000000000000000010100010011 H
b00000000000000000000000000100000 I
b0010011 J
b011 L
0O
1Q
b00000000000000000000000000000000 U
1X
b00000000000000000000000000000000 z
b00000000000000000000000000000000 |
b00000000000000000000000000000000 }
b00000000000000000000000000100000 ~
b00000000000000000000000000011100 !!
b00000000000000000000000000000000 "!
b00000000000000000000000000000000 $!
b00000000000000000000000000100000 %!
b00000000000000000000000000000000 &!
b00000000000000000000000000000000 '!
b01010 (!
#52
b00000000000000000000000000000000 2
0X
b00000000000000000000000000000000 d
#53
b00000000000000000000000000100000 #
b01100 &
b00000010000001100000011001100011 H
b00000000000000000000000000100100 I
b1100011 J
b0110 K
b001 L
0P
0Q
1T
b00000000000000000000000000000010 U
1X
b00000000000000000000000000000010 z
b00000000000000000000000000010110 |
b00000000000000000000000000101100 }
b00000000000000000000000000100100 ~
b00000000000000000000000001001100 !!
b00000000000000000000000000000010 $!
b00000000000000000000000000100100 %!
b00000000000000000000000000011000 &!
b00000000000000000000000000000010 '!
b01100 (!
#54
0X
#55
b00000000000000000000000000100100 #
b01010 &
b00001 '
b00000000000101010000010100010011 H
b00000000000000000000000000101000 I
b0010011 J
b0010 K
b011 L
1P
1Q
0T
b00000000000000000000000000000001 U
1X
b00000000000000000000000000000000 z
b00000000000000000000000000111000 {
b00000000000000000000000000000001 |
b00000000000000000000000000000010 }
b00000000000000000000000000101000 ~
b00000000000000000000000000100110 !!
b00000000000000000000000000000001 "!
b00000000000000000000000000000001 $!
b00000000000000000000000000101000 %!
b00000000000000000000000000000001 &!
b00000000000000000000000000000001 '!
b01010 (!
#56
b00000000000000000000000000000001 2
b00000000000000000000000000000010 U
0X
b00000000000000000000000000000001 d
b00000000000000000000000000000001 z
b00000000000000000000000000000010 $!
b00000000000000000000000000000010 &!
b00000000000000000000000000000010 '!
#57
b00000000000000000000000000101000 #
b01100 &
b01010 '
b00000010101001100000001001100011 H
b00000000000000000000000000101100 I
b1100011 J
b0110 K
b001 L
0P
0Q
1T
b00000000000000000000000000000001 U
1X
b00000000000000000000000000000010 z
b00000000000000000000000000000001 {
b00000000000000000000000000010010 |
b00000000000000000000000000100100 }
b00000000000000000000000000101100 ~
b00000000000000000000000001001100 !!
b00000000000000000000000000000001 $!
b00000000000000000000000000101100 %!
b00000000000000000000000000010100 &!
b00000000000000000000000000000001 '!
b00100 (!
#58
0X
#59
b00000000000000000000000000101100 #
1$
b11111 '
b11111111111101100000011000010011 H
b00000000000000000000000000110000 I
b0010011 J
b0010 K
b011 L
1P
1Q
0T
1X
b00000000000000000000000000000000 {
b11111111111111111111111111111111 |
b11111111111111111111111111111110 }
b00000000000000000000000000110000 ~
b00000000000000000000000000101010 !!
b11111111111111111111111111111111 "!
b00000000000000000000000000110000 %!
b00000000000000000000000000000001 &!
b01100 (!
#60
b00000000000000000000000000000001 4
b00000000000000000000000000000000 U
0X
b00000000000000000000000000000001 f
b00000000000000000000000000000001 z
b00000000000000000000000000000000 $!
b00000000000000000000000000000000 &!
b00000000000000000000000000000000 '!
