111550175_lab1/waveform.vcd
$version Generated by VerilatedVcd $end
$timescale 1s $end

 $scope module TOP $end
  $var wire  1 U clk $end
  $var wire 32 W r[0] [31:0] $end
  $var wire 32 a r[10] [31:0] $end
  $var wire 32 b r[11] [31:0] $end
  $var wire 32 c r[12] [31:0] $end
  $var wire 32 d r[13] [31:0] $end
  $var wire 32 e r[14] [31:0] $end
  $var wire 32 f r[15] [31:0] $end
  $var wire 32 g r[16] [31:0] $end
  $var wire 32 h r[17] [31:0] $end
  $var wire 32 i r[18] [31:0] $end
  $var wire 32 j r[19] [31:0] $end
  $var wire 32 X r[1] [31:0] $end
  $var wire 32 k r[20] [31:0] $end
  $var wire 32 l r[21] [31:0] $end
  $var wire 32 m r[22] [31:0] $end
  $var wire 32 n r[23] [31:0] $end
  $var wire 32 o r[24] [31:0] $end
  $var wire 32 p r[25] [31:0] $end
  $var wire 32 q r[26] [31:0] $end
  $var wire 32 r r[27] [31:0] $end
  $var wire 32 s r[28] [31:0] $end
  $var wire 32 t r[29] [31:0] $end
  $var wire 32 Y r[2] [31:0] $end
  $var wire 32 u r[30] [31:0] $end
  $var wire 32 v r[31] [31:0] $end
  $var wire 32 Z r[3] [31:0] $end
  $var wire 32 [ r[4] [31:0] $end
  $var wire 32 \ r[5] [31:0] $end
  $var wire 32 ] r[6] [31:0] $end
  $var wire 32 ^ r[7] [31:0] $end
  $var wire 32 _ r[8] [31:0] $end
  $var wire 32 ` r[9] [31:0] $end
  $var wire  1 V start $end
  $scope module SingleCycleCPU $end
   $var wire  2 J ALU_Op [1:0] $end
   $var wire  4 I ALU_ctl [3:0] $end
   $var wire 32 R ALU_res [31:0] $end
   $var wire  1 N ALU_src $end
   $var wire 32 ~ MALU_o [31:0] $end
   $var wire  1 P branc $end
   $var wire  1 U clk $end
   $var wire 32 y imm_out [31:0] $end
   $var wire 32 H inst_out [31:0] $end
   $var wire  1 K mem_read $end
   $var wire  1 L mem_to_reg $end
   $var wire  1 M mem_write $end
   $var wire 32 { pc_input [31:0] $end
   $var wire 32 # pc_output [31:0] $end
   $var wire 32 W r[0] [31:0] $end
   $var wire 32 a r[10] [31:0] $end
   $var wire 32 b r[11] [31:0] $end
   $var wire 32 c r[12] [31:0] $end
   $var wire 32 d r[13] [31:0] $end
   $var wire 32 e r[14] [31:0] $end
   $var wire 32 f r[15] [31:0] $end
   $var wire 32 g r[16] [31:0] $end
   $var wire 32 h r[17] [31:0] $end
   $var wire 32 i r[18] [31:0] $end
   $var wire 32 j r[19] [31:0] $end
   $var wire 32 X r[1] [31:0] $end
   $var wire 32 k r[20] [31:0] $end
   $var wire 32 l r[21] [31:0] $end
   $var wire 32 m r[22] [31:0] $end
   $var wire 32 n r[23] [31:0] $end
   $var wire 32 o r[24] [31:0] $end
   $var wire 32 p r[25] [31:0] $end
   $var wire 32 q r[26] [31:0] $end
   $var wire 32 r r[27] [31:0] $end
   $var wire 32 s r[28] [31:0] $end
   $var wire 32 t r[29] [31:0] $end
   $var wire 32 Y r[2] [31:0] $end
   $var wire 32 u r[30] [31:0] $end
   $var wire 32 v r[31] [31:0] $end
   $var wire 32 Z r[3] [31:0] $end
   $var wire 32 [ r[4] [31:0] $end
   $var wire 32 \ r[5] [31:0] $end
   $var wire 32 ] r[6] [31:0] $end
   $var wire 32 ^ r[7] [31:0] $end
   $var wire 32 _ r[8] [31:0] $end
   $var wire 32 ` r[9] [31:0] $end
   $var wire 32 !! read_data [31:0] $end
   $var wire 32 w read_data1 [31:0] $end
   $var wire 32 x read_data2 [31:0] $end
   $var wire  1 O reg_write $end
   $var wire 32 z shift_left_one [31:0] $end
   $var wire  1 V start $end
   $var wire 32 | sum_1 [31:0] $end
   $var wire 32 } sum_2 [31:0] $end
   $var wire  1 T w1 $end
   $var wire 32 "! write_data [31:0] $end
   $var wire  1 S zero_o $end
   $scope module m_ALU $end
    $var wire 32 w A [31:0] $end
    $var wire 32 R ALUOut [31:0] $end
    $var wire  4 I ALUctl [3:0] $end
    $var wire 32 ~ B [31:0] $end
    $var wire  1 S zero $end
   $upscope $end
   $scope module m_ALUCtrl $end
    $var wire  4 I ALUCtl [3:0] $end
    $var wire  2 J ALUOp [1:0] $end
    $var wire  3 % funct3 [2:0] $end
    $var wire  1 $ funct7 $end
   $upscope $end
   $scope module m_Adder_1 $end
    $var wire 32 # a [31:0] $end
    $var wire 32 $! b [31:0] $end
    $var wire 32 | sum [31:0] $end
   $upscope $end
   $scope module m_Adder_2 $end
    $var wire 32 # a [31:0] $end
    $var wire 32 z b [31:0] $end
    $var wire 32 } sum [31:0] $end
   $upscope $end
   $scope module m_Control $end
    $var wire  2 J ALUOp [1:0] $end
    $var wire  1 N ALUSrc $end
    $var wire  1 P branch $end
    $var wire  1 K memRead $end
    $var wire  1 M memWrite $end
    $var wire  1 L memtoReg $end
    $var wire  7 Q opcode [6:0] $end
    $var wire  1 O regWrite $end
   $upscope $end
   $scope module m_DataMemory $end
    $var wire 32 R address [31:0] $end
    $var wire  1 U clk $end
    $var wire  1 K memRead $end
    $var wire  1 M memWrite $end
    $var wire 32 !! readData [31:0] $end
    $var wire  1 V rst $end
    $var wire 32 x writeData [31:0] $end
   $upscope $end
   $scope module m_ImmGen $end
    $var wire 32 y imm [31:0] $end
    $var wire 32 H inst [31:0] $end
    $var wire  7 Q opcode [6:0] $end
   $upscope $end
   $scope module m_InstMem $end
    $var wire 32 H inst [31:0] $end
    $var wire 32 # readAddr [31:0] $end
   $upscope $end
   $scope module m_Mux_ALU $end
    $var wire 32 ~ out [31:0] $end
    $var wire 32 x s0 [31:0] $end
    $var wire 32 y s1 [31:0] $end
    $var wire  1 N sel $end
    $var wire 32 %! size [31:0] $end
   $upscope $end
   $scope module m_Mux_PC $end
    $var wire 32 { out [31:0] $end
    $var wire 32 | s0 [31:0] $end
    $var wire 32 } s1 [31:0] $end
    $var wire  1 T sel $end
    $var wire 32 %! size [31:0] $end
   $upscope $end
   $scope module m_Mux_WriteData $end
    $var wire 32 "! out [31:0] $end
    $var wire 32 R s0 [31:0] $end
    $var wire 32 !! s1 [31:0] $end
    $var wire  1 L sel $end
    $var wire 32 %! size [31:0] $end
   $upscope $end
   $scope module m_PC $end
    $var wire  1 U clk $end
    $var wire 32 { pc_i [31:0] $end
    $var wire 32 # pc_o [31:0] $end
    $var wire  1 V rst $end
   $upscope $end
   $scope module m_Register $end
    $var wire  1 U clk $end
    $var wire 32 w readData1 [31:0] $end
    $var wire 32 x readData2 [31:0] $end
    $var wire  5 & readReg1 [4:0] $end
    $var wire  5 ' readReg2 [4:0] $end
    $var wire  1 O regWrite $end
    $var wire 32 ( regs[0] [31:0] $end
    $var wire 32 2 regs[10] [31:0] $end
    $var wire 32 3 regs[11] [31:0] $end
    $var wire 32 4 regs[12] [31:0] $end
    $var wire 32 5 regs[13] [31:0] $end
    $var wire 32 6 regs[14] [31:0] $end
    $var wire 32 7 regs[15] [31:0] $end
    $var wire 32 8 regs[16] [31:0] $end
    $var wire 32 9 regs[17] [31:0] $end
    $var wire 32 : regs[18] [31:0] $end
    $var wire 32 ; regs[19] [31:0] $end
    $var wire 32 ) regs[1] [31:0] $end
    $var wire 32 < regs[20] [31:0] $end
    $var wire 32 = regs[21] [31:0] $end
    $var wire 32 > regs[22] [31:0] $end
    $var wire 32 ? regs[23] [31:0] $end
    $var wire 32 @ regs[24] [31:0] $end
    $var wire 32 A regs[25] [31:0] $end
    $var wire 32 B regs[26] [31:0] $end
    $var wire 32 C regs[27] [31:0] $end
    $var wire 32 D regs[28] [31:0] $end
    $var wire 32 E regs[29] [31:0] $end
    $var wire 32 * regs[2] [31:0] $end
    $var wire 32 F regs[30] [31:0] $end
    $var wire 32 G regs[31] [31:0] $end
    $var wire 32 + regs[3] [31:0] $end
    $var wire 32 , regs[4] [31:0] $end
    $var wire 32 - regs[5] [31:0] $end
    $var wire 32 . regs[6] [31:0] $end
    $var wire 32 / regs[7] [31:0] $end
    $var wire 32 0 regs[8] [31:0] $end
    $var wire 32 1 regs[9] [31:0] $end
    $var wire  1 V rst $end
    $var wire 32 "! writeData [31:0] $end
    $var wire  5 #! writeReg [4:0] $end
   $upscope $end
   $scope module m_ShiftLeftOne $end
    $var wire 32 y i [31:0] $end
    $var wire 32 z o [31:0] $end
   $upscope $end
  $upscope $end
 $upscope $end
$enddefinitions $end


#0
b00000000000000000000000000000000 #
0$
b000 %
b00000 &
b00011 '
b00000000000000000000000000000000 (
b00000000000000000000000000000000 )
b00000000000000000000000000000000 *
b00000000000000000000000000000000 +
b00000000000000000000000000000000 ,
b00000000000000000000000000000000 -
b00000000000000000000000000000000 .
b00000000000000000000000000000000 /
b00000000000000000000000000000000 0
b00000000000000000000000000000000 1
b00000000000000000000000000000000 2
b00000000000000000000000000000000 3
b00000000000000000000000000000000 4
b00000000000000000000000000000000 5
b00000000000000000000000000000000 6
b00000000000000000000000000000000 7
b00000000000000000000000000000000 8
b00000000000000000000000000000000 9
b00000000000000000000000000000000 :
b00000000000000000000000000000000 ;
b00000000000000000000000000000000 <
b00000000000000000000000000000000 =
b00000000000000000000000000000000 >
b00000000000000000000000000000000 ?
b00000000000000000000000000000000 @
b00000000000000000000000000000000 A
b00000000000000000000000000000000 B
b00000000000000000000000000000000 C
b00000000000000000000000000000000 D
b00000000000000000000000000000000 E
b00000000000000000000000000000000 F
b00000000000000000000000000000000 G
b00001010001100000000010000010011 H
b0010 I
b11 J
0K
0L
0M
1N
1O
0P
b0010011 Q
b00000000000000000000000010100011 R
0S
0T
0U
1V
b00000000000000000000000000000000 W
b00000000000000000000000000000000 X
b00000000000000000000000000000000 Y
b00000000000000000000000000000000 Z
b00000000000000000000000000000000 [
b00000000000000000000000000000000 \
b00000000000000000000000000000000 ]
b00000000000000000000000000000000 ^
b00000000000000000000000000000000 _
b00000000000000000000000000000000 `
b00000000000000000000000000000000 a
b00000000000000000000000000000000 b
b00000000000000000000000000000000 c
b00000000000000000000000000000000 d
b00000000000000000000000000000000 e
b00000000000000000000000000000000 f
b00000000000000000000000000000000 g
b00000000000000000000000000000000 h
b00000000000000000000000000000000 i
b00000000000000000000000000000000 j
b00000000000000000000000000000000 k
b00000000000000000000000000000000 l
b00000000000000000000000000000000 m
b00000000000000000000000000000000 n
b00000000000000000000000000000000 o
b00000000000000000000000000000000 p
b00000000000000000000000000000000 q
b00000000000000000000000000000000 r
b00000000000000000000000000000000 s
b00000000000000000000000000000000 t
b00000000000000000000000000000000 u
b00000000000000000000000000000000 v
b00000000000000000000000000000000 w
b00000000000000000000000000000000 x
b00000000000000000000000010100011 y
b00000000000000000000000101000110 z
b00000000000000000000000000000100 {
b00000000000000000000000000000100 |
b00000000000000000000000101000110 }
b00000000000000000000000010100011 ~
b00000000000000000000000000000000 !!
b00000000000000000000000010100011 "!
b01000 #!
b00000000000000000000000000000100 $!
b00000000000000000000000000100000 %!
#1
b00000000000000000000000010000000 *
1U
0V
b00000000000000000000000010000000 Y
#2
b00000000000000000000000010100011 0
0U
1V
b00000000000000000000000010100011 _
#3
b00000000000000000000000000000100 #
1$
b00010 &
b11100 '
b11111111110000010000000100010011 H
b00000000000000000000000001111100 R
1U
b00000000000000000000000010000000 w
b11111111111111111111111111111100 y
b11111111111111111111111111111000 z
b00000000000000000000000000001000 {
b00000000000000000000000000001000 |
b11111111111111111111111111111100 }
b11111111111111111111111111111100 ~
b00000000000000000000000001111100 "!
b00010 #!
#4
b00000000000000000000000001111100 *
b00000000000000000000000001111000 R
0U
b00000000000000000000000001111100 Y
b00000000000000000000000001111100 w
b00000000000000000000000001111000 "!
#5
b00000000000000000000000000001000 #
0$
b010 %
b01000 '
b00000000100000010010000000100011 H
b00 J
1M
0O
b0100011 Q
b00000000000000000000000001111100 R
1U
b00000000000000000000000010100011 x
b00000000000000000000000000000000 y
b00000000000000000000000000000000 z
b00000000000000000000000000001100 {
b00000000000000000000000000001100 |
b00000000000000000000000000001000 }
b00000000000000000000000000000000 ~
b00000000000000000000000001111100 "!
b00000 #!
#6
0U
#7
b00000000000000000000000000001100 #
b000 %
b00000 &
b00000 '
b00000000000000000000010000110011 H
b10 J
0M
0N
1O
b0110011 Q
b00000000000000000000000000000000 R
1U
b00000000000000000000000000000000 w
b00000000000000000000000000000000 x
b00000000000000000000000000010000 {
b00000000000000000000000000010000 |
b00000000000000000000000000001100 }
b00000000000000000000000000000000 "!
b01000 #!
#8
b00000000000000000000000000000000 0
0U
b00000000000000000000000000000000 _
#9
b00000000000000000000000000010000 #
b00000000000000000000001010010011 H
b11 J
1N
b0010011 Q
1U
b00000000000000000000000000010100 {
b00000000000000000000000000010100 |
b00000000000000000000000000010000 }
b00101 #!
#10
0U
#11
b00000000000000000000000000010100 #
b010 %
b00101 &
b00111 '
b00000000011100101010001100010011 H
b1111 I
b00000000000000000000000000000001 R
1U
b00000000000000000000000000000111 y
b00000000000000000000000000001110 z
b00000000000000000000000000011000 {
b00000000000000000000000000011000 |
b00000000000000000000000000100010 }
b00000000000000000000000000000111 ~
b00000000000000000000000000000001 "!
b00110 #!
#12
b00000000000000000000000000000001 .
0U
b00000000000000000000000000000001 ]
#13
b00000000000000000000000000011000 #
b000 %
b00110 &
b00000 '
b00000000000000110000011001100011 H
b0110 I
b01 J
0N
0O
1P
b1100011 Q
1U
b00000000000000000000000000000001 w
b00000000000000000000000000000110 y
b00000000000000000000000000001100 z
b00000000000000000000000000011100 {
b00000000000000000000000000011100 |
b00000000000000000000000000100100 }
b00000000000000000000000000000000 ~
b01100 #!
#14
0U
#15
b00000000000000000000000000011100 #
b00101 &
b00001 '
b00000000000100101000001010010011 H
b0010 I
b11 J
1N
1O
0P
b0010011 Q
1U
b00000000000000000000000000000000 w
b00000000000000000000000000000001 y
b00000000000000000000000000000010 z
b00000000000000000000000000100000 {
b00000000000000000000000000100000 |
b00000000000000000000000000011110 }
b00000000000000000000000000000001 ~
b00101 #!
#16
b00000000000000000000000000000001 -
b00000000000000000000000000000010 R
0U
b00000000000000000000000000000001 \
b00000000000000000000000000000001 w
b00000000000000000000000000000010 "!
#17
b00000000000000000000000000100000 #
1$
b00000 &
b00000 '
b11111110000000000000101011100011 H
b0110 I
b01 J
0N
0O
1P
b1100011 Q
b00000000000000000000000000000000 R
1S
1T
1U
b00000000000000000000000000000000 w
b11111111111111111111111111111010 y
b11111111111111111111111111110100 z
b00000000000000000000000000010100 {
b00000000000000000000000000100100 |
b00000000000000000000000000010100 }
b00000000000000000000000000000000 ~
b00000000000000000000000000000000 "!
b10101 #!
#18
0U
#19
b00000000000000000000000000010100 #
0$
b010 %
b00101 &
b00111 '
b00000000011100101010001100010011 H
b1111 I
b11 J
1N
1O
0P
b0010011 Q
b00000000000000000000000000000001 R
0S
0T
1U
b00000000000000000000000000000001 w
b00000000000000000000000000000111 y
b00000000000000000000000000001110 z
b00000000000000000000000000011000 {
b00000000000000000000000000011000 |
b00000000000000000000000000100010 }
b00000000000000000000000000000111 ~
b00000000000000000000000000000001 "!
b00110 #!
#20
0U
#21
b00000000000000000000000000011000 #
b000 %
b00110 &
b00000 '
b00000000000000110000011001100011 H
b0110 I
b01 J
0N
0O
1P
b1100011 Q
1U
b00000000000000000000000000000110 y
b00000000000000000000000000001100 z
b00000000000000000000000000011100 {
b00000000000000000000000000011100 |
b00000000000000000000000000100100 }
b00000000000000000000000000000000 ~
b01100 #!
#22
0U
#23
b00000000000000000000000000011100 #
b00101 &
b00001 '
b00000000000100101000001010010011 H
b0010 I
b11 J
1N
1O
0P
b0010011 Q
b00000000000000000000000000000010 R
1U
b00000000000000000000000000000001 y
b00000000000000000000000000000010 z
b00000000000000000000000000100000 {
b00000000000000000000000000100000 |
b00000000000000000000000000011110 }
b00000000000000000000000000000001 ~
b00000000000000000000000000000010 "!
b00101 #!
#24
b00000000000000000000000000000010 -
b00000000000000000000000000000011 R
0U
b00000000000000000000000000000010 \
b00000000000000000000000000000010 w
b00000000000000000000000000000011 "!
#25
b00000000000000000000000000100000 #
1$
b00000 &
b00000 '
b11111110000000000000101011100011 H
b0110 I
b01 J
0N
0O
1P
b1100011 Q
b00000000000000000000000000000000 R
1S
1T
1U
b00000000000000000000000000000000 w
b11111111111111111111111111111010 y
b11111111111111111111111111110100 z
b00000000000000000000000000010100 {
b00000000000000000000000000100100 |
b00000000000000000000000000010100 }
b00000000000000000000000000000000 ~
b00000000000000000000000000000000 "!
b10101 #!
#26
0U
#27
b00000000000000000000000000010100 #
0$
b010 %
b00101 &
b00111 '
b00000000011100101010001100010011 H
b1111 I
b11 J
1N
1O
0P
b0010011 Q
b00000000000000000000000000000001 R
0S
0T
1U
b00000000000000000000000000000010 w
b00000000000000000000000000000111 y
b00000000000000000000000000001110 z
b00000000000000000000000000011000 {
b00000000000000000000000000011000 |
b00000000000000000000000000100010 }
b00000000000000000000000000000111 ~
b00000000000000000000000000000001 "!
b00110 #!
#28
0U
#29
b00000000000000000000000000011000 #
b000 %
b00110 &
b00000 '
b00000000000000110000011001100011 H
b0110 I
b01 J
0N
0O
1P
b1100011 Q
1U
b00000000000000000000000000000001 w
b00000000000000000000000000000110 y
b00000000000000000000000000001100 z
b00000000000000000000000000011100 {
b00000000000000000000000000011100 |
b00000000000000000000000000100100 }
b00000000000000000000000000000000 ~
b01100 #!
#30
0U
#31
b00000000000000000000000000011100 #
b00101 &
b00001 '
b00000000000100101000001010010011 H
b0010 I
b11 J
1N
1O
0P
b0010011 Q
b00000000000000000000000000000011 R
1U
b00000000000000000000000000000010 w
b00000000000000000000000000000001 y
b00000000000000000000000000000010 z
b00000000000000000000000000100000 {
b00000000000000000000000000100000 |
b00000000000000000000000000011110 }
b00000000000000000000000000000001 ~
b00000000000000000000000000000011 "!
b00101 #!
#32
b00000000000000000000000000000011 -
b00000000000000000000000000000100 R
0U
b00000000000000000000000000000011 \
b00000000000000000000000000000011 w
b00000000000000000000000000000100 "!
#33
b00000000000000000000000000100000 #
1$
b00000 &
b00000 '
b11111110000000000000101011100011 H
b0110 I
b01 J
0N
0O
1P
b1100011 Q
b00000000000000000000000000000000 R
1S
1T
1U
b00000000000000000000000000000000 w
b11111111111111111111111111111010 y
b11111111111111111111111111110100 z
b00000000000000000000000000010100 {
b00000000000000000000000000100100 |
b00000000000000000000000000010100 }
b00000000000000000000000000000000 ~
b00000000000000000000000000000000 "!
b10101 #!
#34
0U
#35
b00000000000000000000000000010100 #
0$
b010 %
b00101 &
b00111 '
b00000000011100101010001100010011 H
b1111 I
b11 J
1N
1O
0P
b0010011 Q
b00000000000000000000000000000001 R
0S
0T
1U
b00000000000000000000000000000011 w
b00000000000000000000000000000111 y
b00000000000000000000000000001110 z
b00000000000000000000000000011000 {
b00000000000000000000000000011000 |
b00000000000000000000000000100010 }
b00000000000000000000000000000111 ~
b00000000000000000000000000000001 "!
b00110 #!
#36
0U
#37
b00000000000000000000000000011000 #
b000 %
b00110 &
b00000 '
b00000000000000110000011001100011 H
b0110 I
b01 J
0N
0O
1P
b1100011 Q
1U
b00000000000000000000000000000001 w
b00000000000000000000000000000110 y
b00000000000000000000000000001100 z
b00000000000000000000000000011100 {
b00000000000000000000000000011100 |
b00000000000000000000000000100100 }
b00000000000000000000000000000000 ~
b01100 #!
#38
0U
#39
b00000000000000000000000000011100 #
b00101 &
b00001 '
b00000000000100101000001010010011 H
b0010 I
b11 J
1N
1O
0P
b0010011 Q
b00000000000000000000000000000100 R
1U
b00000000000000000000000000000011 w
b00000000000000000000000000000001 y
b00000000000000000000000000000010 z
b00000000000000000000000000100000 {
b00000000000000000000000000100000 |
b00000000000000000000000000011110 }
b00000000000000000000000000000001 ~
b00000000000000000000000000000100 "!
b00101 #!
#40
b00000000000000000000000000000100 -
b00000000000000000000000000000101 R
0U
b00000000000000000000000000000100 \
b00000000000000000000000000000100 w
b00000000000000000000000000000101 "!
#41
b00000000000000000000000000100000 #
1$
b00000 &
b00000 '
b11111110000000000000101011100011 H
b0110 I
b01 J
0N
0O
1P
b1100011 Q
b00000000000000000000000000000000 R
1S
1T
1U
b00000000000000000000000000000000 w
b11111111111111111111111111111010 y
b11111111111111111111111111110100 z
b00000000000000000000000000010100 {
b00000000000000000000000000100100 |
b00000000000000000000000000010100 }
b00000000000000000000000000000000 ~
b00000000000000000000000000000000 "!
b10101 #!
#42
0U
#43
b00000000000000000000000000010100 #
0$
b010 %
b00101 &
b00111 '
b00000000011100101010001100010011 H
b1111 I
b11 J
1N
1O
0P
b0010011 Q
b00000000000000000000000000000001 R
0S
0T
1U
b00000000000000000000000000000100 w
b00000000000000000000000000000111 y
b00000000000000000000000000001110 z
b00000000000000000000000000011000 {
b00000000000000000000000000011000 |
b00000000000000000000000000100010 }
b00000000000000000000000000000111 ~
b00000000000000000000000000000001 "!
b00110 #!
#44
0U
#45
b00000000000000000000000000011000 #
b000 %
b00110 &
b00000 '
b00000000000000110000011001100011 H
b0110 I
b01 J
0N
0O
1P
b1100011 Q
1U
b00000000000000000000000000000001 w
b00000000000000000000000000000110 y
b00000000000000000000000000001100 z
b00000000000000000000000000011100 {
b00000000000000000000000000011100 |
b00000000000000000000000000100100 }
b00000000000000000000000000000000 ~
b01100 #!
#46
0U
#47
b00000000000000000000000000011100 #
b00101 &
b00001 '
b00000000000100101000001010010011 H
b0010 I
b11 J
1N
1O
0P
b0010011 Q
b00000000000000000000000000000101 R
1U
b00000000000000000000000000000100 w
b00000000000000000000000000000001 y
b00000000000000000000000000000010 z
b00000000000000000000000000100000 {
b00000000000000000000000000100000 |
b00000000000000000000000000011110 }
b00000000000000000000000000000001 ~
b00000000000000000000000000000101 "!
b00101 #!
#48
b00000000000000000000000000000101 -
b00000000000000000000000000000110 R
0U
b00000000000000000000000000000101 \
b00000000000000000000000000000101 w
b00000000000000000000000000000110 "!
#49
b00000000000000000000000000100000 #
1$
b00000 &
b00000 '
b11111110000000000000101011100011 H
b0110 I
b01 J
0N
0O
1P
b1100011 Q
b00000000000000000000000000000000 R
1S
1T
1U
b00000000000000000000000000000000 w
b11111111111111111111111111111010 y
b11111111111111111111111111110100 z
b00000000000000000000000000010100 {
b00000000000000000000000000100100 |
b00000000000000000000000000010100 }
b00000000000000000000000000000000 ~
b00000000000000000000000000000000 "!
b10101 #!
#50
0U
#51
b00000000000000000000000000010100 #
0$
b010 %
b00101 &
b00111 '
b00000000011100101010001100010011 H
b1111 I
b11 J
1N
1O
0P
b0010011 Q
b00000000000000000000000000000001 R
0S
0T
1U
b00000000000000000000000000000101 w
b00000000000000000000000000000111 y
b00000000000000000000000000001110 z
b00000000000000000000000000011000 {
b00000000000000000000000000011000 |
b00000000000000000000000000100010 }
b00000000000000000000000000000111 ~
b00000000000000000000000000000001 "!
b00110 #!
#52
0U
#53
b00000000000000000000000000011000 #
b000 %
b00110 &
b00000 '
b00000000000000110000011001100011 H
b0110 I
b01 J
0N
0O
1P
b1100011 Q
1U
b00000000000000000000000000000001 w
b00000000000000000000000000000110 y
b00000000000000000000000000001100 z
b00000000000000000000000000011100 {
b00000000000000000000000000011100 |
b00000000000000000000000000100100 }
b00000000000000000000000000000000 ~
b01100 #!
#54
0U
#55
b00000000000000000000000000011100 #
b00101 &
b00001 '
b00000000000100101000001010010011 H
b0010 I
b11 J
1N
1O
0P
b0010011 Q
b00000000000000000000000000000110 R
1U
b00000000000000000000000000000101 w
b00000000000000000000000000000001 y
b00000000000000000000000000000010 z
b00000000000000000000000000100000 {
b00000000000000000000000000100000 |
b00000000000000000000000000011110 }
b00000000000000000000000000000001 ~
b00000000000000000000000000000110 "!
b00101 #!
#56
b00000000000000000000000000000110 -
b00000000000000000000000000000111 R
0U
b00000000000000000000000000000110 \
b00000000000000000000000000000110 w
b00000000000000000000000000000111 "!
#57
b00000000000000000000000000100000 #
1$
b00000 &
b00000 '
b11111110000000000000101011100011 H
b0110 I
b01 J
0N
0O
1P
b1100011 Q
b00000000000000000000000000000000 R
1S
1T
1U
b00000000000000000000000000000000 w
b11111111111111111111111111111010 y
b11111111111111111111111111110100 z
b00000000000000000000000000010100 {
b00000000000000000000000000100100 |
b00000000000000000000000000010100 }
b00000000000000000000000000000000 ~
b00000000000000000000000000000000 "!
b10101 #!
#58
0U
#59
b00000000000000000000000000010100 #
0$
b010 %
b00101 &
b00111 '
b00000000011100101010001100010011 H
b1111 I
b11 J
1N
1O
0P
b0010011 Q
b00000000000000000000000000000001 R
0S
0T
1U
b00000000000000000000000000000110 w
b00000000000000000000000000000111 y
b00000000000000000000000000001110 z
b00000000000000000000000000011000 {
b00000000000000000000000000011000 |
b00000000000000000000000000100010 }
b00000000000000000000000000000111 ~
b00000000000000000000000000000001 "!
b00110 #!
#60
0U
#61
b00000000000000000000000000011000 #
b000 %
b00110 &
b00000 '
b00000000000000110000011001100011 H
b0110 I
b01 J
0N
0O
1P
b1100011 Q
1U
b00000000000000000000000000000001 w
b00000000000000000000000000000110 y
b00000000000000000000000000001100 z
b00000000000000000000000000011100 {
b00000000000000000000000000011100 |
b00000000000000000000000000100100 }
b00000000000000000000000000000000 ~
b01100 #!
#62
0U
#63
b00000000000000000000000000011100 #
b00101 &
b00001 '
b00000000000100101000001010010011 H
b0010 I
b11 J
1N
1O
0P
b0010011 Q
b00000000000000000000000000000111 R
1U
b00000000000000000000000000000110 w
b00000000000000000000000000000001 y
b00000000000000000000000000000010 z
b00000000000000000000000000100000 {
b00000000000000000000000000100000 |
b00000000000000000000000000011110 }
b00000000000000000000000000000001 ~
b00000000000000000000000000000111 "!
b00101 #!
#64
b00000000000000000000000000000111 -
b00000000000000000000000000001000 R
0U
b00000000000000000000000000000111 \
b00000000000000000000000000000111 w
b00000000000000000000000000001000 "!
#65
b00000000000000000000000000100000 #
1$
b00000 &
b00000 '
b11111110000000000000101011100011 H
b0110 I
b01 J
0N
0O
1P
b1100011 Q
b00000000000000000000000000000000 R
1S
1T
1U
b00000000000000000000000000000000 w
b11111111111111111111111111111010 y
b11111111111111111111111111110100 z
b00000000000000000000000000010100 {
b00000000000000000000000000100100 |
b00000000000000000000000000010100 }
b00000000000000000000000000000000 ~
b00000000000000000000000000000000 "!
b10101 #!
#66
0U
#67
b00000000000000000000000000010100 #
0$
b010 %
b00101 &
b00111 '
b00000000011100101010001100010011 H
b1111 I
b11 J
1N
1O
0P
b0010011 Q
0S
0T
1U
b00000000000000000000000000000111 w
b00000000000000000000000000000111 y
b00000000000000000000000000001110 z
b00000000000000000000000000011000 {
b00000000000000000000000000011000 |
b00000000000000000000000000100010 }
b00000000000000000000000000000111 ~
b00110 #!
#68
b00000000000000000000000000000000 .
0U
b00000000000000000000000000000000 ]
#69
b00000000000000000000000000011000 #
b000 %
b00110 &
b00000 '
b00000000000000110000011001100011 H
b0110 I
b01 J
0N
0O
1P
b1100011 Q
1S
1T
1U
b00000000000000000000000000000000 w
b00000000000000000000000000000110 y
b00000000000000000000000000001100 z
b00000000000000000000000000100100 {
b00000000000000000000000000011100 |
b00000000000000000000000000100100 }
b00000000000000000000000000000000 ~
b01100 #!
#70
0U
#71
b00000000000000000000000000100100 #
b110 %
b01010 '
b00000000101000110110001100010011 H
b0001 I
b11 J
1N
1O
0P
b0010011 Q
b00000000000000000000000000001010 R
0S
0T
1U
b00000000000000000000000000001010 y
b00000000000000000000000000010100 z
b00000000000000000000000000101000 {
b00000000000000000000000000101000 |
b00000000000000000000000000111000 }
b00000000000000000000000000001010 ~
b00000000000000000000000000001010 "!
b00110 #!
#72
b00000000000000000000000000001010 .
0U
b00000000000000000000000000001010 ]
b00000000000000000000000000001010 w
#73
b00000000000000000000000000101000 #
b010 %
b00010 &
b00000 '
b00000000000000010010010000000011 H
b0010 I
b00 J
1K
1L
b0000011 Q
b00000000000000000000000001111100 R
1U
b00000000000000000000000001111100 w
b00000000000000000000000000000000 y
b00000000000000000000000000000000 z
b00000000000000000000000000101100 {
b00000000000000000000000000101100 |
b00000000000000000000000000101000 }
b00000000000000000000000000000000 ~
b00000000000000000000000010100011 !!
b00000000000000000000000010100011 "!
b01000 #!
#74
b00000000000000000000000010100011 0
0U
b00000000000000000000000010100011 _
#75
b00000000000000000000000000101100 #
b000 %
b00100 '
b00000000010000010000000100010011 H
b11 J
0K
0L
b0010011 Q
b00000000000000000000000010000000 R
1U
b00000000000000000000000000000100 y
b00000000000000000000000000001000 z
b00000000000000000000000000110000 {
b00000000000000000000000000110000 |
b00000000000000000000000000110100 }
b00000000000000000000000000000100 ~
b00000000000000000000000010000000 "!
b00010 #!
#76
b00000000000000000000000010000000 *
b00000000000000000000000010000100 R
0U
b00000000000000000000000010000000 Y
b00000000000000000000000010000000 w
b00000000000000000000000010000100 "!
#77
b00000000000000000000000000110000 #
b00000 &
b00000 '
b00000000000000000000000000000000 H
b0110 I
b01 J
0N
0O
1P
b0000000 Q
b00000000000000000000000000000000 R
1S
1T
1U
b00000000000000000000000000000000 w
b00000000000000000000000000000000 y
b00000000000000000000000000000000 z
b00000000000000000000000000110100 |
b00000000000000000000000000110000 }
b00000000000000000000000000000000 ~
b00000000000000000000000000000000 "!
b00000 #!
